EESchema Schematic File Version 4
LIBS:octojack-cache
EELAYER 26 0
EELAYER END
$Descr User 15748 8268
encoding utf-8
Sheet 1 1
Title ""
Date ""
Rev ""
Comp ""
Comment1 ""
Comment2 ""
Comment3 ""
Comment4 ""
$EndDescr
$Comp
L teensy:Teensy3.5 U1
U 1 1 5C698982
P 2600 3850
F 0 "U1" H 2600 6237 60  0000 C CNN
F 1 "Teensy3.5" H 2600 6131 60  0000 C CNN
F 2 "footprints:Teensy35_36_noInternalPins" H 2600 3850 60  0001 C CNN
F 3 "" H 2600 3850 60  0000 C CNN
	1    2600 3850
	1    0    0    -1  
$EndComp
$Comp
L Connector:Conn_Coaxial J19
U 1 1 5C698C5B
P 10350 3100
F 0 "J19" H 10449 3076 50  0000 L CNN
F 1 "Conn_Coaxial" H 10449 2985 50  0000 L CNN
F 2 "footprints:731375003" H 10350 3100 50  0001 C CNN
F 3 " ~" H 10350 3100 50  0001 C CNN
	1    10350 3100
	1    0    0    -1  
$EndComp
$Comp
L Connector:Conn_Coaxial J22
U 1 1 5C698D1F
P 11100 3100
F 0 "J22" H 11199 3076 50  0000 L CNN
F 1 "Conn_Coaxial" H 11199 2985 50  0000 L CNN
F 2 "footprints:731375003" H 11100 3100 50  0001 C CNN
F 3 " ~" H 11100 3100 50  0001 C CNN
	1    11100 3100
	1    0    0    -1  
$EndComp
$Comp
L Connector:Conn_Coaxial J25
U 1 1 5C698D69
P 11800 3100
F 0 "J25" H 11899 3076 50  0000 L CNN
F 1 "Conn_Coaxial" H 11899 2985 50  0000 L CNN
F 2 "footprints:731375003" H 11800 3100 50  0001 C CNN
F 3 " ~" H 11800 3100 50  0001 C CNN
	1    11800 3100
	1    0    0    -1  
$EndComp
$Comp
L Connector:Conn_Coaxial J20
U 1 1 5C698DCD
P 10350 3650
F 0 "J20" H 10449 3626 50  0000 L CNN
F 1 "Conn_Coaxial" H 10449 3535 50  0000 L CNN
F 2 "footprints:731375003" H 10350 3650 50  0001 C CNN
F 3 " ~" H 10350 3650 50  0001 C CNN
	1    10350 3650
	1    0    0    -1  
$EndComp
$Comp
L Connector:Conn_Coaxial J23
U 1 1 5C698DF7
P 11100 3650
F 0 "J23" H 11199 3626 50  0000 L CNN
F 1 "Conn_Coaxial" H 11199 3535 50  0000 L CNN
F 2 "footprints:731375003" H 11100 3650 50  0001 C CNN
F 3 " ~" H 11100 3650 50  0001 C CNN
	1    11100 3650
	1    0    0    -1  
$EndComp
$Comp
L Connector:Conn_Coaxial J26
U 1 1 5C698E29
P 11800 3650
F 0 "J26" H 11899 3626 50  0000 L CNN
F 1 "Conn_Coaxial" H 11899 3535 50  0000 L CNN
F 2 "footprints:731375003" H 11800 3650 50  0001 C CNN
F 3 " ~" H 11800 3650 50  0001 C CNN
	1    11800 3650
	1    0    0    -1  
$EndComp
Text GLabel 1500 4650 0    50   Input ~ 0
PIN33
Text GLabel 1500 4750 0    50   Input ~ 0
PIN34
Text GLabel 1500 4850 0    50   Input ~ 0
PIN35
Text GLabel 1500 4950 0    50   Input ~ 0
PIN36
Text GLabel 1500 5050 0    50   Input ~ 0
PIN37
Text GLabel 1500 5150 0    50   Input ~ 0
PIN38
Text GLabel 1500 5250 0    50   Input ~ 0
PIN39
Text GLabel 1500 5350 0    50   Input ~ 0
PINA21
Text GLabel 1500 5450 0    50   Input ~ 0
PINA22
Text GLabel 1500 5650 0    50   Input ~ 0
PIN13
Text GLabel 1500 5750 0    50   Input ~ 0
PIN14
Text GLabel 1500 5850 0    50   Input ~ 0
PIN15
Text GLabel 1500 5950 0    50   Input ~ 0
PIN16
Text GLabel 3800 5650 2    50   Input ~ 0
PIN20
Text GLabel 3800 5750 2    50   Input ~ 0
PIN19
Text GLabel 3800 5850 2    50   Input ~ 0
PIN18
Text GLabel 3800 5950 2    50   Input ~ 0
PIN17
Text GLabel 3800 5350 2    50   Input ~ 0
PIN23
Text GLabel 3800 5450 2    50   Input ~ 0
PIN22
Text GLabel 3800 5550 2    50   Input ~ 0
PIN21
Wire Wire Line
	1500 5650 1600 5650
Wire Wire Line
	1500 5750 1600 5750
Wire Wire Line
	1500 5850 1600 5850
Wire Wire Line
	1500 5950 1600 5950
Wire Wire Line
	1500 5150 1600 5150
Wire Wire Line
	1500 5250 1600 5250
Wire Wire Line
	1500 5350 1600 5350
Wire Wire Line
	1500 5450 1600 5450
Wire Wire Line
	1500 4750 1600 4750
Wire Wire Line
	1500 4850 1600 4850
Wire Wire Line
	1500 4950 1600 4950
Wire Wire Line
	1500 5050 1600 5050
Wire Wire Line
	1500 4650 1600 4650
Wire Wire Line
	3600 5650 3800 5650
Wire Wire Line
	3600 5750 3800 5750
Wire Wire Line
	3600 5850 3800 5850
Wire Wire Line
	3600 5950 3800 5950
Wire Wire Line
	3600 5350 3800 5350
Wire Wire Line
	3600 5450 3800 5450
Wire Wire Line
	3600 5550 3800 5550
$Comp
L Driver_Motor:Pololu_Breakout_DRV8825 A1
U 1 1 5C69B76A
P 8600 1700
F 0 "A1" H 8600 2478 50  0000 C CNN
F 1 "Pololu_Breakout_DRV8825" H 8600 2387 50  0000 C CNN
F 2 "Module:Pololu_Breakout-16_15.2x20.3mm" H 8800 900 50  0001 L CNN
F 3 "https://www.pololu.com/product/2982" H 8700 1400 50  0001 C CNN
	1    8600 1700
	1    0    0    -1  
$EndComp
$Comp
L Driver_Motor:Pololu_Breakout_DRV8825 A2
U 1 1 5C69B7E4
P 11200 1700
F 0 "A2" H 11200 2478 50  0000 C CNN
F 1 "Pololu_Breakout_DRV8825" H 11200 2387 50  0000 C CNN
F 2 "Module:Pololu_Breakout-16_15.2x20.3mm" H 11400 900 50  0001 L CNN
F 3 "https://www.pololu.com/product/2982" H 11300 1400 50  0001 C CNN
	1    11200 1700
	1    0    0    -1  
$EndComp
$Comp
L Driver_Motor:Pololu_Breakout_DRV8825 A3
U 1 1 5C69B820
P 13700 1700
F 0 "A3" H 13700 2478 50  0000 C CNN
F 1 "Pololu_Breakout_DRV8825" H 13700 2387 50  0000 C CNN
F 2 "Module:Pololu_Breakout-16_15.2x20.3mm" H 13900 900 50  0001 L CNN
F 3 "https://www.pololu.com/product/2982" H 13800 1400 50  0001 C CNN
	1    13700 1700
	1    0    0    -1  
$EndComp
$Comp
L natecermak:CPC1002N K3
U 1 1 5C653C2A
P 12850 5750
F 0 "K3" H 13050 5750 85  0000 C CNN
F 1 "CPC1002N" H 13050 5700 50  0001 C CNN
F 2 "Package_SO:SOP-4_3.8x4.1mm_P2.54mm" H 12900 5200 50  0001 C CNN
F 3 "" H 12900 5200 50  0001 C CNN
	1    12850 5750
	1    0    0    -1  
$EndComp
$Comp
L natecermak:CPC1002N K1
U 1 1 5C653C92
P 12850 4650
F 0 "K1" H 13050 4650 85  0000 C CNN
F 1 "CPC1002N" H 13050 4600 50  0001 C CNN
F 2 "Package_SO:SOP-4_3.8x4.1mm_P2.54mm" H 12900 4100 50  0001 C CNN
F 3 "" H 12900 4100 50  0001 C CNN
	1    12850 4650
	1    0    0    -1  
$EndComp
$Comp
L Connector:Conn_01x03_Male J30
U 1 1 5C656933
P 13700 700
F 0 "J30" V 13500 677 50  0000 C CNN
F 1 "Conn_01x03_Male" V 13600 677 50  0000 C CNN
F 2 "Connectors:1X03" H 13700 700 50  0001 C CNN
F 3 "~" H 13700 700 50  0001 C CNN
	1    13700 700 
	0    1    1    0   
$EndComp
$Comp
L octojack-rescue:POWER_JACK-SparkFun-Connectors J1
U 1 1 5C657529
P 2550 7400
F 0 "J1" H 2506 7790 45  0000 C CNN
F 1 "POWER_JACK" H 2506 7706 45  0000 C CNN
F 2 "Connectors:POWER_JACK_PTH_BREAD" H 2550 7650 20  0001 C CNN
F 3 "" H 2550 7400 50  0001 C CNN
F 4 "CONN-08197" H 2506 7611 60  0000 C CNN "Field4"
	1    2550 7400
	1    0    0    -1  
$EndComp
$Comp
L octojack-rescue:POWER_JACK-SparkFun-Connectors J2
U 1 1 5C6576E9
P 2550 6750
F 0 "J2" H 2506 7140 45  0000 C CNN
F 1 "POWER_JACK" H 2506 7056 45  0000 C CNN
F 2 "Connectors:POWER_JACK_PTH_BREAD" H 2550 7000 20  0001 C CNN
F 3 "" H 2550 6750 50  0001 C CNN
F 4 "CONN-08197" H 2506 6961 60  0000 C CNN "Field4"
	1    2550 6750
	1    0    0    -1  
$EndComp
$Comp
L Connector:Conn_01x03_Male J32
U 1 1 5C657A66
P 10800 4450
F 0 "J32" V 10635 4426 50  0000 C CNN
F 1 "Conn_01x03_Male" V 10726 4426 50  0000 C CNN
F 2 "Connectors:1X03" H 10800 4450 50  0001 C CNN
F 3 "~" H 10800 4450 50  0001 C CNN
	1    10800 4450
	0    1    1    0   
$EndComp
$Comp
L power:GND #PWR02
U 1 1 5C65E04D
P 2750 6850
F 0 "#PWR02" H 2750 6600 50  0001 C CNN
F 1 "GND" H 2755 6677 50  0000 C CNN
F 2 "" H 2750 6850 50  0001 C CNN
F 3 "" H 2750 6850 50  0001 C CNN
	1    2750 6850
	1    0    0    -1  
$EndComp
$Comp
L power:GND #PWR01
U 1 1 5C65E095
P 2750 7500
F 0 "#PWR01" H 2750 7250 50  0001 C CNN
F 1 "GND" H 2755 7327 50  0000 C CNN
F 2 "" H 2750 7500 50  0001 C CNN
F 3 "" H 2750 7500 50  0001 C CNN
	1    2750 7500
	1    0    0    -1  
$EndComp
Text GLabel 8100 1900 0    50   Input ~ 0
PIN7
Text GLabel 8100 1800 0    50   Input ~ 0
PIN8
Text GLabel 8100 1700 0    50   Input ~ 0
PIN9
Wire Wire Line
	8100 1700 8200 1700
Wire Wire Line
	8100 1800 8200 1800
Wire Wire Line
	8100 1900 8200 1900
Text GLabel 10700 1900 0    50   Input ~ 0
PIN10
Text GLabel 10700 1800 0    50   Input ~ 0
PIN11
Text GLabel 10700 1700 0    50   Input ~ 0
PIN12
Wire Wire Line
	10700 1700 10800 1700
Wire Wire Line
	10700 1800 10800 1800
Wire Wire Line
	10700 1900 10800 1900
Text GLabel 13200 1900 0    50   Input ~ 0
PIN24
Text GLabel 13200 1800 0    50   Input ~ 0
PIN25
Text GLabel 13200 1700 0    50   Input ~ 0
PIN26
Wire Wire Line
	13200 1700 13300 1700
Wire Wire Line
	13200 1800 13300 1800
Wire Wire Line
	13200 1900 13300 1900
Text GLabel 3700 2450 2    50   Input ~ 0
PIN50
Text GLabel 3700 2550 2    50   Input ~ 0
PIN49
Text GLabel 3700 2650 2    50   Input ~ 0
PIN48
Text GLabel 3700 2750 2    50   Input ~ 0
PIN47
Text GLabel 3700 2150 2    50   Input ~ 0
PIN53
Text GLabel 3700 2250 2    50   Input ~ 0
PIN52
Text GLabel 3700 2350 2    50   Input ~ 0
PIN51
Wire Wire Line
	3600 2450 3700 2450
Wire Wire Line
	3600 2550 3700 2550
Wire Wire Line
	3600 2650 3700 2650
Wire Wire Line
	3600 2750 3700 2750
Wire Wire Line
	3600 2150 3700 2150
Wire Wire Line
	3600 2250 3700 2250
Wire Wire Line
	3600 2350 3700 2350
Text GLabel 3700 2050 2    50   Input ~ 0
PIN54
Text GLabel 3700 1750 2    50   Input ~ 0
PIN57
Text GLabel 3700 1850 2    50   Input ~ 0
PIN56
Text GLabel 3700 1950 2    50   Input ~ 0
PIN55
Wire Wire Line
	3600 2050 3700 2050
Wire Wire Line
	3600 1750 3700 1750
Wire Wire Line
	3600 1850 3700 1850
Wire Wire Line
	3600 1950 3700 1950
Text GLabel 4800 900  0    50   Input ~ 0
GPIO0
Text GLabel 1500 2250 0    50   Input ~ 0
PIN4
Text GLabel 1500 2350 0    50   Input ~ 0
PIN5
Text GLabel 1500 2450 0    50   Input ~ 0
PIN6
Text GLabel 1500 2550 0    50   Input ~ 0
PIN7
Text GLabel 1500 2650 0    50   Input ~ 0
PIN8
Wire Wire Line
	1500 2450 1600 2450
Wire Wire Line
	1500 2550 1600 2550
Wire Wire Line
	1500 2650 1600 2650
Wire Wire Line
	1500 1950 1600 1950
Wire Wire Line
	1500 2050 1600 2050
Wire Wire Line
	1500 2150 1600 2150
Wire Wire Line
	4800 900  4850 900 
Text GLabel 1500 2750 0    50   Input ~ 0
PIN9
Text GLabel 1500 2850 0    50   Input ~ 0
PIN10
Text GLabel 1500 2950 0    50   Input ~ 0
PIN11
Text GLabel 1500 3050 0    50   Input ~ 0
PIN12
Text GLabel 1500 3250 0    50   Input ~ 0
PIN24
Text GLabel 1500 3350 0    50   Input ~ 0
PIN25
Text GLabel 1500 3450 0    50   Input ~ 0
PIN26
Text GLabel 1500 3550 0    50   Input ~ 0
PIN27
Wire Wire Line
	1500 3250 1600 3250
Wire Wire Line
	1500 3350 1600 3350
Wire Wire Line
	1500 3450 1600 3450
Wire Wire Line
	1500 3550 1600 3550
Wire Wire Line
	1500 2850 1600 2850
Wire Wire Line
	1500 2950 1600 2950
Wire Wire Line
	1500 3050 1600 3050
Wire Wire Line
	1500 2750 1600 2750
Text GLabel 1500 3650 0    50   Input ~ 0
PIN28
Text GLabel 1500 3750 0    50   Input ~ 0
PIN29
Text GLabel 1500 3850 0    50   Input ~ 0
PIN30
Text GLabel 1500 3950 0    50   Input ~ 0
PIN31
Wire Wire Line
	1500 3650 1600 3650
Wire Wire Line
	1500 3750 1600 3750
Wire Wire Line
	1500 3850 1600 3850
Wire Wire Line
	1500 3950 1600 3950
Text GLabel 1500 4050 0    50   Input ~ 0
PIN32
Wire Wire Line
	1500 4050 1600 4050
Text GLabel 11550 3100 0    50   Input ~ 0
DAC0
Text GLabel 11550 3650 0    50   Input ~ 0
DAC1
Wire Wire Line
	11550 3100 11600 3100
Wire Wire Line
	11550 3650 11600 3650
Wire Wire Line
	2750 7400 2750 7500
Connection ~ 2750 7500
Wire Wire Line
	2750 6750 2750 6850
Connection ~ 2750 6850
Text GLabel 9350 3100 0    50   Input ~ 0
GPIO0
Text GLabel 9350 3650 0    50   Input ~ 0
GPIO1
Text GLabel 10100 3100 0    50   Input ~ 0
GPIO2
Text GLabel 10100 3650 0    50   Input ~ 0
GPIO3
Wire Wire Line
	9350 3650 9400 3650
Wire Wire Line
	10100 3100 10150 3100
Wire Wire Line
	10100 3650 10150 3650
Wire Wire Line
	9350 3100 9400 3100
Text GLabel 10850 3100 0    50   Input ~ 0
GPIO4
Text GLabel 10850 3650 0    50   Input ~ 0
GPIO5
Wire Wire Line
	10850 3100 10900 3100
Wire Wire Line
	10850 3650 10900 3650
$Comp
L power:GND #PWR043
U 1 1 5C6A0FEE
P 11450 3300
F 0 "#PWR043" H 11450 3050 50  0001 C CNN
F 1 "GND" H 11455 3127 50  0000 C CNN
F 2 "" H 11450 3300 50  0001 C CNN
F 3 "" H 11450 3300 50  0001 C CNN
	1    11450 3300
	1    0    0    -1  
$EndComp
Connection ~ 11100 3300
Wire Wire Line
	11100 3300 10350 3300
Wire Wire Line
	11800 3300 11450 3300
Wire Wire Line
	10350 3850 11100 3850
Connection ~ 11100 3850
Wire Wire Line
	11100 3850 11450 3850
$Comp
L power:GND #PWR044
U 1 1 5C6D5C06
P 11450 3850
F 0 "#PWR044" H 11450 3600 50  0001 C CNN
F 1 "GND" H 11455 3677 50  0000 C CNN
F 2 "" H 11450 3850 50  0001 C CNN
F 3 "" H 11450 3850 50  0001 C CNN
	1    11450 3850
	1    0    0    -1  
$EndComp
Connection ~ 11450 3850
Wire Wire Line
	11450 3850 11800 3850
Wire Notes Line
	7450 2850 8650 2850
Wire Notes Line
	8650 2850 8650 4250
Wire Notes Line
	8650 4250 7450 4250
Wire Notes Line
	7450 4250 7450 2850
Text GLabel 8000 3300 0    50   Input ~ 0
PIN4
Text GLabel 8000 3650 0    50   Input ~ 0
PIN5
Text GLabel 8000 4000 0    50   Input ~ 0
PIN6
Wire Wire Line
	8000 3300 8200 3300
Wire Wire Line
	8000 3650 8200 3650
Wire Wire Line
	8000 2950 8200 2950
Text GLabel 8000 2950 0    50   Input ~ 0
PIN3
Wire Wire Line
	8000 4000 8200 4000
$Comp
L power:+5V #PWR018
U 1 1 5C6FF45C
P 8100 3050
F 0 "#PWR018" H 8100 2900 50  0001 C CNN
F 1 "+5V" V 8115 3178 50  0000 L CNN
F 2 "" H 8100 3050 50  0001 C CNN
F 3 "" H 8100 3050 50  0001 C CNN
	1    8100 3050
	0    -1   -1   0   
$EndComp
$Comp
L power:+5V #PWR020
U 1 1 5C6FF4FF
P 8100 3400
F 0 "#PWR020" H 8100 3250 50  0001 C CNN
F 1 "+5V" V 8115 3528 50  0000 L CNN
F 2 "" H 8100 3400 50  0001 C CNN
F 3 "" H 8100 3400 50  0001 C CNN
	1    8100 3400
	0    -1   -1   0   
$EndComp
$Comp
L power:+5V #PWR022
U 1 1 5C6FF544
P 8100 3750
F 0 "#PWR022" H 8100 3600 50  0001 C CNN
F 1 "+5V" V 8115 3878 50  0000 L CNN
F 2 "" H 8100 3750 50  0001 C CNN
F 3 "" H 8100 3750 50  0001 C CNN
	1    8100 3750
	0    -1   -1   0   
$EndComp
$Comp
L power:+5V #PWR024
U 1 1 5C6FF589
P 8100 4100
F 0 "#PWR024" H 8100 3950 50  0001 C CNN
F 1 "+5V" V 8115 4228 50  0000 L CNN
F 2 "" H 8100 4100 50  0001 C CNN
F 3 "" H 8100 4100 50  0001 C CNN
	1    8100 4100
	0    -1   -1   0   
$EndComp
Wire Wire Line
	8100 3050 8200 3050
Wire Wire Line
	8200 3400 8100 3400
Wire Wire Line
	8100 3750 8200 3750
Wire Wire Line
	8200 4100 8100 4100
$Comp
L power:GND #PWR025
U 1 1 5C7110E0
P 8100 4200
F 0 "#PWR025" H 8100 3950 50  0001 C CNN
F 1 "GND" V 8105 4072 50  0000 R CNN
F 2 "" H 8100 4200 50  0001 C CNN
F 3 "" H 8100 4200 50  0001 C CNN
	1    8100 4200
	0    1    1    0   
$EndComp
$Comp
L power:GND #PWR023
U 1 1 5C711149
P 8100 3850
F 0 "#PWR023" H 8100 3600 50  0001 C CNN
F 1 "GND" V 8105 3722 50  0000 R CNN
F 2 "" H 8100 3850 50  0001 C CNN
F 3 "" H 8100 3850 50  0001 C CNN
	1    8100 3850
	0    1    1    0   
$EndComp
$Comp
L power:GND #PWR021
U 1 1 5C71118E
P 8100 3500
F 0 "#PWR021" H 8100 3250 50  0001 C CNN
F 1 "GND" V 8105 3372 50  0000 R CNN
F 2 "" H 8100 3500 50  0001 C CNN
F 3 "" H 8100 3500 50  0001 C CNN
	1    8100 3500
	0    1    1    0   
$EndComp
$Comp
L power:GND #PWR019
U 1 1 5C7111D3
P 8100 3150
F 0 "#PWR019" H 8100 2900 50  0001 C CNN
F 1 "GND" V 8105 3022 50  0000 R CNN
F 2 "" H 8100 3150 50  0001 C CNN
F 3 "" H 8100 3150 50  0001 C CNN
	1    8100 3150
	0    1    1    0   
$EndComp
Wire Wire Line
	8100 3150 8200 3150
Wire Wire Line
	8100 3500 8200 3500
Wire Wire Line
	8100 3850 8200 3850
Wire Wire Line
	8100 4200 8200 4200
Text Notes 1100 2250 0    39   ~ 0
servo
Text Notes 1100 2350 0    39   ~ 0
servo
Text Notes 1100 2450 0    39   ~ 0
servo
Text Notes 1100 2150 0    39   ~ 0
servo
Text Notes 1100 4850 0    39   ~ 0
gpio
Text Notes 1000 2550 0    39   ~ 0
stepper1
Text Notes 1000 2650 0    39   ~ 0
stepper1
Text Notes 1000 2750 0    39   ~ 0
stepper1
Text Notes 950  2850 0    39   ~ 0
stepper2
Text Notes 950  2950 0    39   ~ 0
stepper2
Text Notes 950  3450 0    39   ~ 0
stepper3
Text Notes 950  3350 0    39   ~ 0
stepper3
Text Notes 950  3250 0    39   ~ 0
stepper3
Wire Wire Line
	13700 1100 13700 900 
Wire Wire Line
	8600 2500 8650 2500
$Comp
L power:GND #PWR033
U 1 1 5C77879C
P 8650 2500
F 0 "#PWR033" H 8650 2250 50  0001 C CNN
F 1 "GND" H 8655 2327 50  0000 C CNN
F 2 "" H 8650 2500 50  0001 C CNN
F 3 "" H 8650 2500 50  0001 C CNN
	1    8650 2500
	1    0    0    -1  
$EndComp
Connection ~ 8650 2500
Wire Wire Line
	8650 2500 8700 2500
$Comp
L power:GND #PWR039
U 1 1 5C778864
P 11250 2500
F 0 "#PWR039" H 11250 2250 50  0001 C CNN
F 1 "GND" H 11255 2327 50  0000 C CNN
F 2 "" H 11250 2500 50  0001 C CNN
F 3 "" H 11250 2500 50  0001 C CNN
	1    11250 2500
	1    0    0    -1  
$EndComp
$Comp
L power:GND #PWR040
U 1 1 5C7788A9
P 11250 2500
F 0 "#PWR040" H 11250 2250 50  0001 C CNN
F 1 "GND" H 11255 2327 50  0000 C CNN
F 2 "" H 11250 2500 50  0001 C CNN
F 3 "" H 11250 2500 50  0001 C CNN
	1    11250 2500
	1    0    0    -1  
$EndComp
$Comp
L power:GND #PWR048
U 1 1 5C7788EE
P 13750 2500
F 0 "#PWR048" H 13750 2250 50  0001 C CNN
F 1 "GND" H 13755 2327 50  0000 C CNN
F 2 "" H 13750 2500 50  0001 C CNN
F 3 "" H 13750 2500 50  0001 C CNN
	1    13750 2500
	1    0    0    -1  
$EndComp
Wire Wire Line
	11200 2500 11250 2500
Connection ~ 11250 2500
Wire Wire Line
	11250 2500 11300 2500
Wire Wire Line
	13700 2500 13750 2500
Connection ~ 13750 2500
Wire Wire Line
	13750 2500 13800 2500
$Comp
L power:+5V #PWR047
U 1 1 5C783722
P 13500 900
F 0 "#PWR047" H 13500 750 50  0001 C CNN
F 1 "+5V" V 13515 1028 50  0000 L CNN
F 2 "" H 13500 900 50  0001 C CNN
F 3 "" H 13500 900 50  0001 C CNN
	1    13500 900 
	0    -1   -1   0   
$EndComp
$Comp
L power:+12V #PWR049
U 1 1 5C783846
P 13900 900
F 0 "#PWR049" H 13900 750 50  0001 C CNN
F 1 "+12V" V 13915 1028 50  0000 L CNN
F 2 "" H 13900 900 50  0001 C CNN
F 3 "" H 13900 900 50  0001 C CNN
	1    13900 900 
	0    1    1    0   
$EndComp
Wire Wire Line
	13500 900  13600 900 
Wire Wire Line
	13800 900  13900 900 
$Comp
L Connector:Conn_01x03_Male J21
U 1 1 5C78EE8C
P 11200 700
F 0 "J21" V 11000 677 50  0000 C CNN
F 1 "Conn_01x03_Male" V 11100 677 50  0000 C CNN
F 2 "Connectors:1X03" H 11200 700 50  0001 C CNN
F 3 "~" H 11200 700 50  0001 C CNN
	1    11200 700 
	0    1    1    0   
$EndComp
Wire Wire Line
	11200 1100 11200 900 
$Comp
L power:+5V #PWR038
U 1 1 5C78EE94
P 11000 900
F 0 "#PWR038" H 11000 750 50  0001 C CNN
F 1 "+5V" V 11015 1028 50  0000 L CNN
F 2 "" H 11000 900 50  0001 C CNN
F 3 "" H 11000 900 50  0001 C CNN
	1    11000 900 
	0    -1   -1   0   
$EndComp
$Comp
L power:+12V #PWR041
U 1 1 5C78EE9A
P 11400 900
F 0 "#PWR041" H 11400 750 50  0001 C CNN
F 1 "+12V" V 11415 1028 50  0000 L CNN
F 2 "" H 11400 900 50  0001 C CNN
F 3 "" H 11400 900 50  0001 C CNN
	1    11400 900 
	0    1    1    0   
$EndComp
Wire Wire Line
	11000 900  11100 900 
Wire Wire Line
	11300 900  11400 900 
$Comp
L Connector:Conn_01x03_Male J16
U 1 1 5C794B89
P 8600 700
F 0 "J16" V 8400 677 50  0000 C CNN
F 1 "Conn_01x03_Male" V 8500 677 50  0000 C CNN
F 2 "Connectors:1X03" H 8600 700 50  0001 C CNN
F 3 "~" H 8600 700 50  0001 C CNN
	1    8600 700 
	0    1    1    0   
$EndComp
Wire Wire Line
	8600 1100 8600 900 
$Comp
L power:+5V #PWR028
U 1 1 5C794B91
P 8400 900
F 0 "#PWR028" H 8400 750 50  0001 C CNN
F 1 "+5V" V 8415 1028 50  0000 L CNN
F 2 "" H 8400 900 50  0001 C CNN
F 3 "" H 8400 900 50  0001 C CNN
	1    8400 900 
	0    -1   -1   0   
$EndComp
$Comp
L power:+12V #PWR034
U 1 1 5C794B97
P 8800 900
F 0 "#PWR034" H 8800 750 50  0001 C CNN
F 1 "+12V" V 8815 1028 50  0000 L CNN
F 2 "" H 8800 900 50  0001 C CNN
F 3 "" H 8800 900 50  0001 C CNN
	1    8800 900 
	0    1    1    0   
$EndComp
Wire Wire Line
	8400 900  8500 900 
Wire Wire Line
	8700 900  8800 900 
$Comp
L power:+5V #PWR04
U 1 1 5C7B3725
P 2850 6650
F 0 "#PWR04" H 2850 6500 50  0001 C CNN
F 1 "+5V" V 2865 6778 50  0000 L CNN
F 2 "" H 2850 6650 50  0001 C CNN
F 3 "" H 2850 6650 50  0001 C CNN
	1    2850 6650
	0    1    1    0   
$EndComp
$Comp
L power:+12V #PWR03
U 1 1 5C7B372B
P 2850 7300
F 0 "#PWR03" H 2850 7150 50  0001 C CNN
F 1 "+12V" V 2865 7428 50  0000 L CNN
F 2 "" H 2850 7300 50  0001 C CNN
F 3 "" H 2850 7300 50  0001 C CNN
	1    2850 7300
	0    1    1    0   
$EndComp
Wire Wire Line
	2850 6650 2750 6650
Wire Wire Line
	2750 7300 2850 7300
Connection ~ 11450 3300
Wire Wire Line
	11100 3300 11450 3300
$Comp
L Connector:Conn_01x04_Male J42
U 1 1 5C80BEDF
P 14600 1800
F 0 "J42" H 14573 1680 50  0000 R CNN
F 1 "Conn_01x04_Male" H 14573 1771 50  0000 R CNN
F 2 "footprints:1-2834016-4 _TERM_BLK_2P_SIDE_ENT_2.54MM_PCB" H 14600 1800 50  0001 C CNN
F 3 "~" H 14600 1800 50  0001 C CNN
	1    14600 1800
	-1   0    0    1   
$EndComp
Wire Wire Line
	14400 2000 14400 1900
Wire Wire Line
	14300 1900 14300 1800
Wire Wire Line
	14300 1800 14400 1800
$Comp
L Connector:Conn_01x04_Male J40
U 1 1 5C82CA52
P 12100 1800
F 0 "J40" H 12073 1680 50  0000 R CNN
F 1 "Conn_01x04_Male" H 12073 1771 50  0000 R CNN
F 2 "footprints:1-2834016-4 _TERM_BLK_2P_SIDE_ENT_2.54MM_PCB" H 12100 1800 50  0001 C CNN
F 3 "~" H 12100 1800 50  0001 C CNN
	1    12100 1800
	-1   0    0    1   
$EndComp
Wire Wire Line
	11900 2000 11900 1900
Wire Wire Line
	11800 1900 11800 1800
Wire Wire Line
	11800 1800 11900 1800
Wire Wire Line
	11900 1600 11700 1600
$Comp
L Connector:Conn_01x04_Male J39
U 1 1 5C83B96A
P 9550 1800
F 0 "J39" H 9523 1680 50  0000 R CNN
F 1 "Conn_01x04_Male" H 9523 1771 50  0000 R CNN
F 2 "footprints:1-2834016-4 _TERM_BLK_2P_SIDE_ENT_2.54MM_PCB" H 9550 1800 50  0001 C CNN
F 3 "~" H 9550 1800 50  0001 C CNN
	1    9550 1800
	-1   0    0    1   
$EndComp
Wire Wire Line
	9350 2000 9350 1900
Wire Wire Line
	9200 1900 9200 1800
Wire Wire Line
	9200 1800 9350 1800
Wire Notes Line
	7450 550  7450 2750
Wire Notes Line
	7450 2750 15150 2750
Wire Notes Line
	15150 2750 15150 550 
Wire Notes Line
	15150 550  7450 550 
$Comp
L power:+3.3V #PWR016
U 1 1 5C8D9C74
P 7650 2000
F 0 "#PWR016" H 7650 1850 50  0001 C CNN
F 1 "+3.3V" H 7665 2173 50  0000 C CNN
F 2 "" H 7650 2000 50  0001 C CNN
F 3 "" H 7650 2000 50  0001 C CNN
	1    7650 2000
	1    0    0    -1  
$EndComp
$Comp
L Connector_Generic:Conn_02x03_Odd_Even J7
U 1 1 5C8DA16A
P 7850 2200
F 0 "J7" H 7900 2517 50  0000 C CNN
F 1 "Conn_02x03_Odd_Even" H 7900 2426 50  0000 C CNN
F 2 "Connector_PinHeader_2.54mm:PinHeader_2x03_P2.54mm_Vertical" H 7850 2200 50  0001 C CNN
F 3 "~" H 7850 2200 50  0001 C CNN
	1    7850 2200
	1    0    0    1   
$EndComp
Wire Wire Line
	8150 2300 8200 2300
Wire Wire Line
	8150 2200 8200 2200
Wire Wire Line
	8150 2100 8200 2100
$Comp
L power:+3.3V #PWR036
U 1 1 5C934113
P 10250 2000
F 0 "#PWR036" H 10250 1850 50  0001 C CNN
F 1 "+3.3V" H 10265 2173 50  0000 C CNN
F 2 "" H 10250 2000 50  0001 C CNN
F 3 "" H 10250 2000 50  0001 C CNN
	1    10250 2000
	1    0    0    -1  
$EndComp
$Comp
L Connector_Generic:Conn_02x03_Odd_Even J18
U 1 1 5C934119
P 10450 2200
F 0 "J18" H 10500 2517 50  0000 C CNN
F 1 "Conn_02x03_Odd_Even" H 10500 2426 50  0000 C CNN
F 2 "Connector_PinHeader_2.54mm:PinHeader_2x03_P2.54mm_Vertical" H 10450 2200 50  0001 C CNN
F 3 "~" H 10450 2200 50  0001 C CNN
	1    10450 2200
	1    0    0    1   
$EndComp
Wire Wire Line
	10750 2300 10800 2300
Wire Wire Line
	10750 2200 10800 2200
Wire Wire Line
	10750 2100 10800 2100
$Comp
L power:+3.3V #PWR045
U 1 1 5C93D5E6
P 12750 2000
F 0 "#PWR045" H 12750 1850 50  0001 C CNN
F 1 "+3.3V" H 12765 2173 50  0000 C CNN
F 2 "" H 12750 2000 50  0001 C CNN
F 3 "" H 12750 2000 50  0001 C CNN
	1    12750 2000
	1    0    0    -1  
$EndComp
$Comp
L Connector_Generic:Conn_02x03_Odd_Even J27
U 1 1 5C93D5EC
P 12950 2200
F 0 "J27" H 13000 2517 50  0000 C CNN
F 1 "Conn_02x03_Odd_Even" H 13000 2426 50  0000 C CNN
F 2 "Connector_PinHeader_2.54mm:PinHeader_2x03_P2.54mm_Vertical" H 12950 2200 50  0001 C CNN
F 3 "~" H 12950 2200 50  0001 C CNN
	1    12950 2200
	1    0    0    1   
$EndComp
Wire Wire Line
	13250 2300 13300 2300
Wire Wire Line
	13250 2200 13300 2200
Wire Wire Line
	13250 2100 13300 2100
$Comp
L power:+3.3V #PWR046
U 1 1 5C95B47C
P 13200 1300
F 0 "#PWR046" H 13200 1150 50  0001 C CNN
F 1 "+3.3V" H 13215 1473 50  0000 C CNN
F 2 "" H 13200 1300 50  0001 C CNN
F 3 "" H 13200 1300 50  0001 C CNN
	1    13200 1300
	1    0    0    -1  
$EndComp
Wire Wire Line
	13200 1300 13300 1300
Wire Wire Line
	13300 1300 13300 1400
Connection ~ 13300 1300
Connection ~ 13300 1400
Wire Wire Line
	13300 1400 13300 1500
$Comp
L power:+3.3V #PWR037
U 1 1 5C964FC1
P 10700 1300
F 0 "#PWR037" H 10700 1150 50  0001 C CNN
F 1 "+3.3V" H 10715 1473 50  0000 C CNN
F 2 "" H 10700 1300 50  0001 C CNN
F 3 "" H 10700 1300 50  0001 C CNN
	1    10700 1300
	1    0    0    -1  
$EndComp
$Comp
L power:+3.3V #PWR017
U 1 1 5C965012
P 8100 1300
F 0 "#PWR017" H 8100 1150 50  0001 C CNN
F 1 "+3.3V" H 8115 1473 50  0000 C CNN
F 2 "" H 8100 1300 50  0001 C CNN
F 3 "" H 8100 1300 50  0001 C CNN
	1    8100 1300
	1    0    0    -1  
$EndComp
Wire Wire Line
	8100 1300 8200 1300
Wire Wire Line
	8200 1300 8200 1400
Connection ~ 8200 1300
Connection ~ 8200 1400
Wire Wire Line
	8200 1400 8200 1500
Wire Wire Line
	10700 1300 10800 1300
Wire Wire Line
	10800 1500 10800 1400
Connection ~ 10800 1300
Connection ~ 10800 1400
Wire Wire Line
	10800 1400 10800 1300
Text GLabel 12600 5400 0    50   Input ~ 0
PIN38
Text GLabel 12600 5950 0    50   Input ~ 0
PIN37
Text GLabel 12600 4850 0    50   Input ~ 0
PIN39
Wire Wire Line
	12600 5950 12750 5950
Wire Wire Line
	12600 4850 12750 4850
Wire Wire Line
	12600 5400 12750 5400
Wire Wire Line
	13350 5600 13450 5600
Wire Wire Line
	12750 5600 12650 5600
Wire Wire Line
	12650 6150 12750 6150
Wire Wire Line
	13350 6150 13450 6150
Wire Wire Line
	13350 5050 13450 5050
Wire Wire Line
	13350 5400 13700 5400
Wire Notes Line
	8750 2850 15150 2850
Wire Notes Line
	15150 2850 15150 4100
Wire Notes Line
	15150 4100 8750 4100
Wire Notes Line
	8750 4100 8750 2850
Wire Notes Line
	15150 4200 15150 6400
Wire Notes Line
	15150 6400 12150 6400
Wire Notes Line
	12150 6400 12150 4200
Wire Notes Line
	12150 4200 15150 4200
$Comp
L Device:CP1_Small C3
U 1 1 5CD4C18A
P 13800 1100
F 0 "C3" V 14028 1100 50  0000 C CNN
F 1 "CP1_Small" V 13937 1100 50  0000 C CNN
F 2 "Capacitor_THT:CP_Radial_D6.3mm_P2.50mm" H 13800 1100 50  0001 C CNN
F 3 "~" H 13800 1100 50  0001 C CNN
	1    13800 1100
	0    -1   -1   0   
$EndComp
Connection ~ 13700 1100
$Comp
L Device:CP1_Small C2
U 1 1 5CD4C67D
P 11300 1100
F 0 "C2" V 11528 1100 50  0000 C CNN
F 1 "CP1_Small" V 11437 1100 50  0000 C CNN
F 2 "Capacitor_THT:CP_Radial_D6.3mm_P2.50mm" H 11300 1100 50  0001 C CNN
F 3 "~" H 11300 1100 50  0001 C CNN
	1    11300 1100
	0    -1   -1   0   
$EndComp
Connection ~ 11200 1100
$Comp
L Device:CP1_Small C1
U 1 1 5CD4CC0C
P 8700 1100
F 0 "C1" V 8928 1100 50  0000 C CNN
F 1 "CP1_Small" V 8837 1100 50  0000 C CNN
F 2 "Capacitor_THT:CP_Radial_D6.3mm_P2.50mm" H 8700 1100 50  0001 C CNN
F 3 "~" H 8700 1100 50  0001 C CNN
	1    8700 1100
	0    -1   -1   0   
$EndComp
Connection ~ 8600 1100
$Comp
L power:GND #PWR035
U 1 1 5CD4D45A
P 8900 1100
F 0 "#PWR035" H 8900 850 50  0001 C CNN
F 1 "GND" H 8905 927 50  0000 C CNN
F 2 "" H 8900 1100 50  0001 C CNN
F 3 "" H 8900 1100 50  0001 C CNN
	1    8900 1100
	0    -1   -1   0   
$EndComp
$Comp
L power:GND #PWR042
U 1 1 5CD4D541
P 11500 1100
F 0 "#PWR042" H 11500 850 50  0001 C CNN
F 1 "GND" H 11505 927 50  0000 C CNN
F 2 "" H 11500 1100 50  0001 C CNN
F 3 "" H 11500 1100 50  0001 C CNN
	1    11500 1100
	0    -1   -1   0   
$EndComp
$Comp
L power:GND #PWR050
U 1 1 5CD4D5A4
P 14000 1100
F 0 "#PWR050" H 14000 850 50  0001 C CNN
F 1 "GND" H 14005 927 50  0000 C CNN
F 2 "" H 14000 1100 50  0001 C CNN
F 3 "" H 14000 1100 50  0001 C CNN
	1    14000 1100
	0    -1   -1   0   
$EndComp
Wire Wire Line
	14000 1100 13900 1100
Wire Wire Line
	11500 1100 11400 1100
Wire Wire Line
	8800 1100 8900 1100
$Comp
L natecermak:TB6612FNG_sparkfunBreakout U2
U 1 1 5CDB25B1
P 11350 5250
F 0 "U2" H 11350 5825 50  0000 C CNN
F 1 "TB6612FNG_sparkfunBreakout" H 11350 5734 50  0000 C CNN
F 2 "footprints:TB6612FNG_sparkfunBreakout" H 11250 5700 50  0001 C CNN
F 3 "" H 11250 5700 50  0001 C CNN
	1    11350 5250
	1    0    0    -1  
$EndComp
Wire Wire Line
	11000 4900 10800 4900
Wire Wire Line
	10800 4900 10800 4650
$Comp
L power:GND #PWR053
U 1 1 5CE161FF
P 11750 5600
F 0 "#PWR053" H 11750 5350 50  0001 C CNN
F 1 "GND" H 11755 5427 50  0000 C CNN
F 2 "" H 11750 5600 50  0001 C CNN
F 3 "" H 11750 5600 50  0001 C CNN
	1    11750 5600
	1    0    0    -1  
$EndComp
Wire Wire Line
	11700 5600 11750 5600
$Comp
L power:+5V #PWR051
U 1 1 5CE48894
P 10650 4650
F 0 "#PWR051" H 10650 4500 50  0001 C CNN
F 1 "+5V" V 10665 4778 50  0000 L CNN
F 2 "" H 10650 4650 50  0001 C CNN
F 3 "" H 10650 4650 50  0001 C CNN
	1    10650 4650
	0    -1   -1   0   
$EndComp
$Comp
L power:+12V #PWR054
U 1 1 5CE48926
P 10950 4650
F 0 "#PWR054" H 10950 4500 50  0001 C CNN
F 1 "+12V" V 10965 4778 50  0000 L CNN
F 2 "" H 10950 4650 50  0001 C CNN
F 3 "" H 10950 4650 50  0001 C CNN
	1    10950 4650
	0    1    1    0   
$EndComp
Wire Wire Line
	10650 4650 10700 4650
Wire Wire Line
	10900 4650 10950 4650
Text GLabel 11750 5300 2    50   Input ~ 0
PIN18
Text GLabel 11750 5200 2    50   Input ~ 0
PIN17
Text GLabel 11750 5500 2    50   Input ~ 0
PIN20
Text GLabel 11750 4900 2    50   Input ~ 0
PIN14
Text GLabel 11750 5400 2    50   Input ~ 0
PIN19
Wire Wire Line
	11700 5200 11750 5200
Wire Wire Line
	11700 5100 11750 5100
Wire Wire Line
	11700 5500 11750 5500
Wire Wire Line
	11700 4900 11750 4900
Wire Wire Line
	11700 5300 11750 5300
Text GLabel 11750 5100 2    50   Input ~ 0
PIN16
Text GLabel 11750 5000 2    50   Input ~ 0
PIN15
Wire Wire Line
	11750 5400 11700 5400
Wire Wire Line
	11750 5000 11700 5000
$Comp
L power:+3.3V #PWR052
U 1 1 5CF518C5
P 10700 5000
F 0 "#PWR052" H 10700 4850 50  0001 C CNN
F 1 "+3.3V" H 10715 5173 50  0000 C CNN
F 2 "" H 10700 5000 50  0001 C CNN
F 3 "" H 10700 5000 50  0001 C CNN
	1    10700 5000
	1    0    0    -1  
$EndComp
Wire Wire Line
	10700 5000 11000 5000
Wire Wire Line
	10750 5300 10850 5300
Wire Wire Line
	10750 5200 10800 5200
Wire Wire Line
	10750 5400 10900 5400
Wire Wire Line
	10750 5500 10950 5500
Wire Notes Line
	9800 4200 9800 6150
Wire Notes Line
	9800 6150 12050 6150
Wire Notes Line
	12050 6150 12050 4200
Wire Notes Line
	9800 4200 12050 4200
Wire Wire Line
	12650 5050 12750 5050
Text Notes 10000 4900 1    79   ~ 0
DC MOTOR
Text Notes 12200 4350 0    79   ~ 0
POWER OUTPUT
Text Notes 8950 3950 1    79   ~ 0
GPIO BREAKOUT
Text Notes 7650 3300 1    79   ~ 0
SERVO
Text Notes 7450 700  0    79   ~ 0
STEPPERS
Text Notes 4100 5850 0    39   ~ 0
dc motor1
Text Notes 4100 5750 0    39   ~ 0
dc motor1
Text Notes 4100 5650 0    39   ~ 0
dc motor1
Text Notes 900  5850 0    39   ~ 0
dc motor2
Text Notes 900  5950 0    39   ~ 0
dc motor2
$Comp
L power:GND #PWR056
U 1 1 5D27636D
P 14900 3850
F 0 "#PWR056" H 14900 3600 50  0001 C CNN
F 1 "GND" H 14905 3677 50  0000 C CNN
F 2 "" H 14900 3850 50  0001 C CNN
F 3 "" H 14900 3850 50  0001 C CNN
	1    14900 3850
	1    0    0    -1  
$EndComp
Text GLabel 14350 3800 0    50   Input ~ 0
GPIO0
Text GLabel 14350 3700 0    50   Input ~ 0
GPIO1
Text GLabel 14350 3600 0    50   Input ~ 0
GPIO2
Text GLabel 14350 3500 0    50   Input ~ 0
GPIO3
Wire Wire Line
	14350 3200 14400 3200
Wire Wire Line
	14350 3300 14400 3300
Wire Wire Line
	14350 3400 14400 3400
Wire Wire Line
	14350 3100 14400 3100
Text GLabel 12850 3550 0    50   Input ~ 0
DAC1
Text GLabel 12850 3050 0    50   Input ~ 0
GPIO0
Wire Wire Line
	14350 3700 14400 3700
Wire Wire Line
	14350 3800 14400 3800
Text GLabel 12850 3150 0    50   Input ~ 0
GPIO1
Text GLabel 12850 3450 0    50   Input ~ 0
DAC0
Wire Wire Line
	14350 3500 14400 3500
Wire Wire Line
	14350 3600 14400 3600
Text GLabel 3700 3350 2    50   Input ~ 0
PIN43
Text GLabel 3700 3450 2    50   Input ~ 0
PIN42
Text GLabel 3700 3150 2    50   Input ~ 0
PIN45
Text GLabel 3700 3250 2    50   Input ~ 0
PIN44
Wire Wire Line
	3600 3350 3700 3350
Wire Wire Line
	3600 3450 3700 3450
Wire Wire Line
	3600 3150 3700 3150
Wire Wire Line
	3600 3250 3700 3250
Text GLabel 3700 3050 2    50   Input ~ 0
PIN46
Wire Wire Line
	3600 3050 3700 3050
Text GLabel 3700 3550 2    50   Input ~ 0
PIN41
Wire Wire Line
	3600 3550 3700 3550
Text GLabel 3700 3650 2    50   Input ~ 0
PIN40
Wire Wire Line
	3600 3650 3700 3650
$Comp
L natecermak:Conn_03x04 U3
U 1 1 5D6E14D7
P 8300 3550
F 0 "U3" V 8606 3540 50  0000 C CNN
F 1 "Conn_03x04" V 8515 3540 50  0000 C CNN
F 2 "footprints:Conn_03x04_2.54mmPitch_byColumn" H 8300 4300 50  0001 C CNN
F 3 "" H 8300 4300 50  0001 C CNN
	1    8300 3550
	1    0    0    -1  
$EndComp
$Comp
L Connector:Conn_Coaxial J8
U 1 1 5D748B9D
P 9600 3100
F 0 "J8" H 9699 3076 50  0000 L CNN
F 1 "Conn_Coaxial" H 9699 2985 50  0000 L CNN
F 2 "footprints:731375003" H 9600 3100 50  0001 C CNN
F 3 " ~" H 9600 3100 50  0001 C CNN
	1    9600 3100
	1    0    0    -1  
$EndComp
$Comp
L Connector:Conn_Coaxial J9
U 1 1 5D748BA4
P 9600 3650
F 0 "J9" H 9699 3626 50  0000 L CNN
F 1 "Conn_Coaxial" H 9699 3535 50  0000 L CNN
F 2 "footprints:731375003" H 9600 3650 50  0001 C CNN
F 3 " ~" H 9600 3650 50  0001 C CNN
	1    9600 3650
	1    0    0    -1  
$EndComp
Wire Wire Line
	9100 1600 9300 1600
$Comp
L Connector:Conn_01x04_Male J38
U 1 1 5DCD7BA4
P 9550 1400
F 0 "J38" H 9523 1280 50  0000 R CNN
F 1 "Conn_01x04_Male" H 9523 1371 50  0000 R CNN
F 2 "Connector_PinHeader_2.54mm:PinHeader_1x04_P2.54mm_Horizontal" H 9550 1400 50  0001 C CNN
F 3 "~" H 9550 1400 50  0001 C CNN
	1    9550 1400
	-1   0    0    1   
$EndComp
Wire Wire Line
	9350 1200 9300 1200
Wire Wire Line
	9300 1200 9300 1600
Connection ~ 9300 1600
Wire Wire Line
	9300 1600 9350 1600
Wire Wire Line
	9350 1300 9250 1300
Wire Wire Line
	9250 1300 9250 1700
Connection ~ 9250 1700
Wire Wire Line
	9250 1700 9350 1700
Wire Wire Line
	9350 1400 9200 1400
Wire Wire Line
	9150 1500 9350 1500
Wire Wire Line
	11700 1700 11850 1700
$Comp
L Connector:Conn_01x04_Male J41
U 1 1 5DDBD5FA
P 12150 1400
F 0 "J41" H 12123 1280 50  0000 R CNN
F 1 "Conn_01x04_Male" H 12123 1371 50  0000 R CNN
F 2 "Connector_PinHeader_2.54mm:PinHeader_1x04_P2.54mm_Horizontal" H 12150 1400 50  0001 C CNN
F 3 "~" H 12150 1400 50  0001 C CNN
	1    12150 1400
	-1   0    0    1   
$EndComp
Wire Wire Line
	11950 1200 11900 1200
Wire Wire Line
	11900 1200 11900 1600
Wire Wire Line
	11950 1300 11850 1300
Wire Wire Line
	11850 1300 11850 1700
Wire Wire Line
	11950 1400 11800 1400
Wire Wire Line
	11750 1500 11950 1500
Connection ~ 11850 1700
Wire Wire Line
	11850 1700 11900 1700
Connection ~ 11900 1600
Wire Wire Line
	14200 1600 14400 1600
Wire Wire Line
	14200 1700 14350 1700
$Comp
L Connector:Conn_01x04_Male J43
U 1 1 5DE34CCF
P 14650 1400
F 0 "J43" H 14623 1280 50  0000 R CNN
F 1 "Conn_01x04_Male" H 14623 1371 50  0000 R CNN
F 2 "Connector_PinHeader_2.54mm:PinHeader_1x04_P2.54mm_Horizontal" H 14650 1400 50  0001 C CNN
F 3 "~" H 14650 1400 50  0001 C CNN
	1    14650 1400
	-1   0    0    1   
$EndComp
Wire Wire Line
	14450 1200 14400 1200
Wire Wire Line
	14400 1200 14400 1600
Wire Wire Line
	14450 1300 14350 1300
Wire Wire Line
	14350 1300 14350 1700
Wire Wire Line
	14450 1400 14300 1400
Wire Wire Line
	14300 1400 14300 1800
Wire Wire Line
	14250 2000 14250 1500
Wire Wire Line
	14250 1500 14450 1500
Connection ~ 14250 2000
Wire Wire Line
	14250 2000 14400 2000
Connection ~ 14300 1800
Connection ~ 14350 1700
Wire Wire Line
	14350 1700 14400 1700
Connection ~ 14400 1600
$Comp
L Connector:Conn_01x04_Male J35
U 1 1 5E07ACB3
P 10550 5800
F 0 "J35" H 10523 5680 50  0000 R CNN
F 1 "Conn_01x04_Male" H 10523 5771 50  0000 R CNN
F 2 "footprints:1-2834016-4 _TERM_BLK_2P_SIDE_ENT_2.54MM_PCB" H 10550 5800 50  0001 C CNN
F 3 "~" H 10550 5800 50  0001 C CNN
	1    10550 5800
	1    0    0    1   
$EndComp
$Comp
L Connector:Conn_01x04_Male J34
U 1 1 5E094BE6
P 10550 5400
F 0 "J34" H 10523 5280 50  0000 R CNN
F 1 "Conn_01x04_Male" H 10523 5371 50  0000 R CNN
F 2 "Connector_PinHeader_2.54mm:PinHeader_1x04_P2.54mm_Horizontal" H 10550 5400 50  0001 C CNN
F 3 "~" H 10550 5400 50  0001 C CNN
	1    10550 5400
	1    0    0    1   
$EndComp
Wire Wire Line
	10750 5600 10800 5600
Wire Wire Line
	10800 5600 10800 5200
Connection ~ 10800 5200
Wire Wire Line
	10800 5200 11000 5200
Wire Wire Line
	10750 5700 10850 5700
Wire Wire Line
	10850 5700 10850 5300
Connection ~ 10850 5300
Wire Wire Line
	10850 5300 11000 5300
Wire Wire Line
	10750 5800 10900 5800
Wire Wire Line
	10900 5800 10900 5400
Connection ~ 10900 5400
Wire Wire Line
	10900 5400 11000 5400
Wire Wire Line
	10750 5900 10950 5900
Wire Wire Line
	10950 5900 10950 5500
Connection ~ 10950 5500
Wire Wire Line
	10950 5500 11000 5500
Wire Wire Line
	9600 3300 10350 3300
Connection ~ 10350 3300
Wire Wire Line
	9600 3850 10350 3850
Connection ~ 10350 3850
$Comp
L power:GND #PWR058
U 1 1 5E21CC3D
P 1350 4350
F 0 "#PWR058" H 1350 4100 50  0001 C CNN
F 1 "GND" H 1355 4177 50  0000 C CNN
F 2 "" H 1350 4350 50  0001 C CNN
F 3 "" H 1350 4350 50  0001 C CNN
	1    1350 4350
	1    0    0    -1  
$EndComp
Wire Wire Line
	1350 4350 1600 4350
$Comp
L natecermak:CPC1002N K2
U 1 1 5C653B8A
P 12850 5200
F 0 "K2" H 13050 5200 85  0000 C CNN
F 1 "CPC1002N" H 13050 5150 50  0001 C CNN
F 2 "Package_SO:SOP-4_3.8x4.1mm_P2.54mm" H 12900 4650 50  0001 C CNN
F 3 "" H 12900 4650 50  0001 C CNN
	1    12850 5200
	1    0    0    -1  
$EndComp
Wire Wire Line
	13450 6150 13450 5600
Wire Wire Line
	13450 5600 13450 5050
Connection ~ 13450 5600
Wire Wire Line
	12650 5050 12650 5600
Wire Wire Line
	12650 5600 12650 6150
Connection ~ 12650 5600
$Comp
L Connector:Conn_01x06_Male J10
U 1 1 5EEE0FCA
P 14700 5050
F 0 "J10" H 14673 5023 50  0000 R CNN
F 1 "Conn_01x06_Male" H 14673 4932 50  0000 R CNN
F 2 "footprints:1-2834016-6_TERM_BLK_2P_SIDE_ENT_2.54MM_PCB" H 14700 5050 50  0001 C CNN
F 3 "~" H 14700 5050 50  0001 C CNN
	1    14700 5050
	-1   0    0    -1  
$EndComp
Wire Wire Line
	13350 4850 14200 4850
Wire Wire Line
	13700 5400 13700 5050
Wire Wire Line
	13700 5050 14300 5050
Wire Wire Line
	13800 5950 13800 5250
Wire Wire Line
	13800 5250 14400 5250
Wire Wire Line
	13350 5950 13800 5950
$Comp
L power:GND #PWR05
U 1 1 5EFEFA37
P 12650 6150
F 0 "#PWR05" H 12650 5900 50  0001 C CNN
F 1 "GND" H 12655 5977 50  0000 C CNN
F 2 "" H 12650 6150 50  0001 C CNN
F 3 "" H 12650 6150 50  0001 C CNN
	1    12650 6150
	1    0    0    -1  
$EndComp
Connection ~ 12650 6150
$Comp
L power:GND #PWR06
U 1 1 5EFEFAA8
P 13450 6150
F 0 "#PWR06" H 13450 5900 50  0001 C CNN
F 1 "GND" H 13455 5977 50  0000 C CNN
F 2 "" H 13450 6150 50  0001 C CNN
F 3 "" H 13450 6150 50  0001 C CNN
	1    13450 6150
	1    0    0    -1  
$EndComp
Connection ~ 13450 6150
$Comp
L Connector:Conn_01x03_Male J3
U 1 1 5EFF008A
P 13700 4450
F 0 "J3" V 13535 4426 50  0000 C CNN
F 1 "Conn_01x03_Male" V 13626 4426 50  0000 C CNN
F 2 "Connectors:1X03" H 13700 4450 50  0001 C CNN
F 3 "~" H 13700 4450 50  0001 C CNN
	1    13700 4450
	0    1    1    0   
$EndComp
$Comp
L Connector:Conn_01x03_Male J5
U 1 1 5EFF0264
P 14100 4450
F 0 "J5" V 13935 4426 50  0000 C CNN
F 1 "Conn_01x03_Male" V 14026 4426 50  0000 C CNN
F 2 "Connectors:1X03" H 14100 4450 50  0001 C CNN
F 3 "~" H 14100 4450 50  0001 C CNN
	1    14100 4450
	0    1    1    0   
$EndComp
$Comp
L Connector:Conn_01x03_Male J6
U 1 1 5EFF02F2
P 14450 4450
F 0 "J6" V 14285 4426 50  0000 C CNN
F 1 "Conn_01x03_Male" V 14376 4426 50  0000 C CNN
F 2 "Connectors:1X03" H 14450 4450 50  0001 C CNN
F 3 "~" H 14450 4450 50  0001 C CNN
	1    14450 4450
	0    1    1    0   
$EndComp
Wire Wire Line
	13700 4650 13700 4950
Wire Wire Line
	13700 4950 14250 4950
Wire Wire Line
	14100 4650 14100 5150
Wire Wire Line
	14100 5150 14350 5150
Wire Wire Line
	14450 4650 14450 5350
Wire Wire Line
	14450 5350 14500 5350
$Comp
L power:+5V #PWR07
U 1 1 5F06AA5C
P 14650 4650
F 0 "#PWR07" H 14650 4500 50  0001 C CNN
F 1 "+5V" V 14665 4778 50  0000 L CNN
F 2 "" H 14650 4650 50  0001 C CNN
F 3 "" H 14650 4650 50  0001 C CNN
	1    14650 4650
	0    1    1    0   
$EndComp
Wire Wire Line
	13600 4650 13600 4700
Wire Wire Line
	13600 4700 14000 4700
Wire Wire Line
	14000 4700 14000 4650
Wire Wire Line
	14000 4700 14350 4700
Wire Wire Line
	14350 4700 14350 4650
Connection ~ 14000 4700
Wire Wire Line
	13800 4650 13800 4750
Wire Wire Line
	13800 4750 14200 4750
Wire Wire Line
	14200 4750 14200 4650
Wire Wire Line
	14200 4750 14550 4750
Wire Wire Line
	14550 4750 14550 4650
Connection ~ 14200 4750
$Comp
L power:+12V #PWR08
U 1 1 5F14A513
P 14650 4750
F 0 "#PWR08" H 14650 4600 50  0001 C CNN
F 1 "+12V" V 14665 4878 50  0000 L CNN
F 2 "" H 14650 4750 50  0001 C CNN
F 3 "" H 14650 4750 50  0001 C CNN
	1    14650 4750
	0    1    1    0   
$EndComp
$Comp
L Device:R_US R1
U 1 1 5C812AB5
P 4850 1050
F 0 "R1" H 4918 1004 50  0000 L CNN
F 1 "100" H 4918 1095 50  0000 L CNN
F 2 "Resistor_SMD:R_0805_2012Metric" V 4890 1040 50  0001 C CNN
F 3 "~" H 4850 1050 50  0001 C CNN
	1    4850 1050
	-1   0    0    1   
$EndComp
$Comp
L Connector:Conn_01x02_Male J11
U 1 1 5C8322F6
P 5150 1100
F 0 "J11" H 5123 980 50  0000 R CNN
F 1 "Conn_01x02_Male" H 5123 1071 50  0000 R CNN
F 2 "Connector_PinHeader_2.54mm:PinHeader_2x01_P2.54mm_Vertical" H 5150 1100 50  0001 C CNN
F 3 "~" H 5150 1100 50  0001 C CNN
	1    5150 1100
	-1   0    0    1   
$EndComp
Wire Wire Line
	4950 1100 4950 1200
Wire Wire Line
	4850 900  4950 900 
Wire Wire Line
	4950 900  4950 1000
Connection ~ 4850 900 
Wire Wire Line
	4950 1200 4850 1200
Wire Wire Line
	1500 2350 1600 2350
Wire Wire Line
	1500 2250 1600 2250
Text GLabel 1500 1850 0    50   Input ~ 0
PIN0
Text GLabel 1500 1950 0    50   Input ~ 0
PIN1
Text GLabel 1500 2050 0    50   Input ~ 0
PIN2
Text GLabel 1500 2150 0    50   Input ~ 0
PIN3
Wire Wire Line
	1500 1850 1600 1850
$Comp
L Diode:BAT54S D1
U 1 1 5CEB7364
P 4850 1400
F 0 "D1" H 4850 1532 50  0000 C CNN
F 1 "BAT54S" H 4850 1623 50  0000 C CNN
F 2 "Package_TO_SOT_SMD:SOT-23" H 4925 1525 50  0001 L CNN
F 3 "https://www.diodes.com/assets/Datasheets/ds11005.pdf" H 4730 1400 50  0001 C CNN
	1    4850 1400
	-1   0    0    1   
$EndComp
Connection ~ 4850 1200
Text GLabel 4800 1200 0    50   Input ~ 0
PIN29
Wire Wire Line
	4850 1200 4800 1200
$Comp
L power:GND #PWR09
U 1 1 5CF921E6
P 5200 1450
F 0 "#PWR09" H 5200 1200 50  0001 C CNN
F 1 "GND" H 5205 1277 50  0000 C CNN
F 2 "" H 5200 1450 50  0001 C CNN
F 3 "" H 5200 1450 50  0001 C CNN
	1    5200 1450
	1    0    0    -1  
$EndComp
Text GLabel 4800 1750 0    50   Input ~ 0
GPIO1
Wire Wire Line
	4800 1750 4850 1750
$Comp
L Device:R_US R2
U 1 1 5D0404A0
P 4850 1900
F 0 "R2" H 4918 1854 50  0000 L CNN
F 1 "100" H 4918 1945 50  0000 L CNN
F 2 "Resistor_SMD:R_0805_2012Metric" V 4890 1890 50  0001 C CNN
F 3 "~" H 4850 1900 50  0001 C CNN
	1    4850 1900
	-1   0    0    1   
$EndComp
$Comp
L Connector:Conn_01x02_Male J12
U 1 1 5D0404A7
P 5150 1950
F 0 "J12" H 5123 1830 50  0000 R CNN
F 1 "Conn_01x02_Male" H 5123 1921 50  0000 R CNN
F 2 "Connector_PinHeader_2.54mm:PinHeader_2x01_P2.54mm_Vertical" H 5150 1950 50  0001 C CNN
F 3 "~" H 5150 1950 50  0001 C CNN
	1    5150 1950
	-1   0    0    1   
$EndComp
Wire Wire Line
	4950 1950 4950 2050
Wire Wire Line
	4850 1750 4950 1750
Wire Wire Line
	4950 1750 4950 1850
Connection ~ 4850 1750
Wire Wire Line
	4950 2050 4850 2050
$Comp
L Diode:BAT54S D2
U 1 1 5D0404B3
P 4850 2250
F 0 "D2" H 4850 2382 50  0000 C CNN
F 1 "BAT54S" H 4850 2473 50  0000 C CNN
F 2 "Package_TO_SOT_SMD:SOT-23" H 4925 2375 50  0001 L CNN
F 3 "https://www.diodes.com/assets/Datasheets/ds11005.pdf" H 4730 2250 50  0001 C CNN
	1    4850 2250
	-1   0    0    1   
$EndComp
Connection ~ 4850 2050
Text GLabel 4800 2050 0    50   Input ~ 0
PIN30
Wire Wire Line
	4850 2050 4800 2050
Wire Wire Line
	5200 2250 5150 2250
$Comp
L power:GND #PWR010
U 1 1 5D0404C4
P 5200 2250
F 0 "#PWR010" H 5200 2000 50  0001 C CNN
F 1 "GND" H 5205 2077 50  0000 C CNN
F 2 "" H 5200 2250 50  0001 C CNN
F 3 "" H 5200 2250 50  0001 C CNN
	1    5200 2250
	1    0    0    -1  
$EndComp
Text GLabel 4800 2650 0    50   Input ~ 0
GPIO2
Wire Wire Line
	4800 2650 4850 2650
$Comp
L Device:R_US R3
U 1 1 5D05EC9D
P 4850 2800
F 0 "R3" H 4918 2754 50  0000 L CNN
F 1 "100" H 4918 2845 50  0000 L CNN
F 2 "Resistor_SMD:R_0805_2012Metric" V 4890 2790 50  0001 C CNN
F 3 "~" H 4850 2800 50  0001 C CNN
	1    4850 2800
	-1   0    0    1   
$EndComp
$Comp
L Connector:Conn_01x02_Male J13
U 1 1 5D05ECA4
P 5150 2850
F 0 "J13" H 5123 2730 50  0000 R CNN
F 1 "Conn_01x02_Male" H 5123 2821 50  0000 R CNN
F 2 "Connector_PinHeader_2.54mm:PinHeader_2x01_P2.54mm_Vertical" H 5150 2850 50  0001 C CNN
F 3 "~" H 5150 2850 50  0001 C CNN
	1    5150 2850
	-1   0    0    1   
$EndComp
Wire Wire Line
	4950 2850 4950 2950
Wire Wire Line
	4850 2650 4950 2650
Wire Wire Line
	4950 2650 4950 2750
Connection ~ 4850 2650
Wire Wire Line
	4950 2950 4850 2950
$Comp
L Diode:BAT54S D3
U 1 1 5D05ECB0
P 4850 3150
F 0 "D3" H 4850 3282 50  0000 C CNN
F 1 "BAT54S" H 4850 3373 50  0000 C CNN
F 2 "Package_TO_SOT_SMD:SOT-23" H 4925 3275 50  0001 L CNN
F 3 "https://www.diodes.com/assets/Datasheets/ds11005.pdf" H 4730 3150 50  0001 C CNN
	1    4850 3150
	-1   0    0    1   
$EndComp
Connection ~ 4850 2950
Text GLabel 4800 2950 0    50   Input ~ 0
PIN31
Wire Wire Line
	4850 2950 4800 2950
Wire Wire Line
	5200 3150 5150 3150
Text GLabel 4800 3500 0    50   Input ~ 0
GPIO3
Wire Wire Line
	4800 3500 4850 3500
$Comp
L Device:R_US R4
U 1 1 5D05ECCA
P 4850 3650
F 0 "R4" H 4918 3604 50  0000 L CNN
F 1 "100" H 4918 3695 50  0000 L CNN
F 2 "Resistor_SMD:R_0805_2012Metric" V 4890 3640 50  0001 C CNN
F 3 "~" H 4850 3650 50  0001 C CNN
	1    4850 3650
	-1   0    0    1   
$EndComp
$Comp
L Connector:Conn_01x02_Male J14
U 1 1 5D05ECD1
P 5150 3700
F 0 "J14" H 5123 3580 50  0000 R CNN
F 1 "Conn_01x02_Male" H 5123 3671 50  0000 R CNN
F 2 "Connector_PinHeader_2.54mm:PinHeader_2x01_P2.54mm_Vertical" H 5150 3700 50  0001 C CNN
F 3 "~" H 5150 3700 50  0001 C CNN
	1    5150 3700
	-1   0    0    1   
$EndComp
Wire Wire Line
	4950 3700 4950 3800
Wire Wire Line
	4850 3500 4950 3500
Wire Wire Line
	4950 3500 4950 3600
Connection ~ 4850 3500
Wire Wire Line
	4950 3800 4850 3800
$Comp
L Diode:BAT54S D4
U 1 1 5D05ECDD
P 4850 4000
F 0 "D4" H 4850 4132 50  0000 C CNN
F 1 "BAT54S" H 4850 4223 50  0000 C CNN
F 2 "Package_TO_SOT_SMD:SOT-23" H 4925 4125 50  0001 L CNN
F 3 "https://www.diodes.com/assets/Datasheets/ds11005.pdf" H 4730 4000 50  0001 C CNN
	1    4850 4000
	-1   0    0    1   
$EndComp
Connection ~ 4850 3800
Text GLabel 4800 3800 0    50   Input ~ 0
PIN32
Wire Wire Line
	4850 3800 4800 3800
Wire Wire Line
	5200 4000 5150 4000
$Comp
L power:GND #PWR012
U 1 1 5D05ECEE
P 5200 4000
F 0 "#PWR012" H 5200 3750 50  0001 C CNN
F 1 "GND" H 5205 3827 50  0000 C CNN
F 2 "" H 5200 4000 50  0001 C CNN
F 3 "" H 5200 4000 50  0001 C CNN
	1    5200 4000
	1    0    0    -1  
$EndComp
Text GLabel 6200 850  0    50   Input ~ 0
GPIO4
$Comp
L Device:R_US R5
U 1 1 5D0813D7
P 6250 1000
F 0 "R5" H 6318 954 50  0000 L CNN
F 1 "100" H 6318 1045 50  0000 L CNN
F 2 "Resistor_SMD:R_0805_2012Metric" V 6290 990 50  0001 C CNN
F 3 "~" H 6250 1000 50  0001 C CNN
	1    6250 1000
	-1   0    0    1   
$EndComp
$Comp
L Connector:Conn_01x02_Male J15
U 1 1 5D0813DE
P 6550 1050
F 0 "J15" H 6523 930 50  0000 R CNN
F 1 "Conn_01x02_Male" H 6523 1021 50  0000 R CNN
F 2 "Connector_PinHeader_2.54mm:PinHeader_2x01_P2.54mm_Vertical" H 6550 1050 50  0001 C CNN
F 3 "~" H 6550 1050 50  0001 C CNN
	1    6550 1050
	-1   0    0    1   
$EndComp
Wire Wire Line
	6350 1050 6350 1150
Wire Wire Line
	6350 850  6350 950 
Wire Wire Line
	6350 1150 6250 1150
$Comp
L Diode:BAT54S D5
U 1 1 5D0813EA
P 6250 1350
F 0 "D5" H 6250 1482 50  0000 C CNN
F 1 "BAT54S" H 6250 1573 50  0000 C CNN
F 2 "Package_TO_SOT_SMD:SOT-23" H 6325 1475 50  0001 L CNN
F 3 "https://www.diodes.com/assets/Datasheets/ds11005.pdf" H 6130 1350 50  0001 C CNN
	1    6250 1350
	-1   0    0    1   
$EndComp
Connection ~ 6250 1150
Text GLabel 6200 1150 0    50   Input ~ 0
PIN35
Wire Wire Line
	6250 1150 6200 1150
Wire Wire Line
	6600 1350 6550 1350
$Comp
L power:GND #PWR014
U 1 1 5D0813FB
P 6600 1350
F 0 "#PWR014" H 6600 1100 50  0001 C CNN
F 1 "GND" H 6605 1177 50  0000 C CNN
F 2 "" H 6600 1350 50  0001 C CNN
F 3 "" H 6600 1350 50  0001 C CNN
	1    6600 1350
	1    0    0    -1  
$EndComp
Text GLabel 6200 1700 0    50   Input ~ 0
GPIO5
Wire Wire Line
	6200 1700 6250 1700
$Comp
L Device:R_US R6
U 1 1 5D081404
P 6250 1850
F 0 "R6" H 6318 1804 50  0000 L CNN
F 1 "100" H 6318 1895 50  0000 L CNN
F 2 "Resistor_SMD:R_0805_2012Metric" V 6290 1840 50  0001 C CNN
F 3 "~" H 6250 1850 50  0001 C CNN
	1    6250 1850
	-1   0    0    1   
$EndComp
$Comp
L Connector:Conn_01x02_Male J17
U 1 1 5D08140B
P 6550 1900
F 0 "J17" H 6523 1780 50  0000 R CNN
F 1 "Conn_01x02_Male" H 6523 1871 50  0000 R CNN
F 2 "Connector_PinHeader_2.54mm:PinHeader_2x01_P2.54mm_Vertical" H 6550 1900 50  0001 C CNN
F 3 "~" H 6550 1900 50  0001 C CNN
	1    6550 1900
	-1   0    0    1   
$EndComp
Wire Wire Line
	6350 1900 6350 2000
Wire Wire Line
	6250 1700 6350 1700
Wire Wire Line
	6350 1700 6350 1800
Connection ~ 6250 1700
Wire Wire Line
	6350 2000 6250 2000
$Comp
L Diode:BAT54S D6
U 1 1 5D081417
P 6250 2200
F 0 "D6" H 6250 2332 50  0000 C CNN
F 1 "BAT54S" H 6250 2423 50  0000 C CNN
F 2 "Package_TO_SOT_SMD:SOT-23" H 6325 2325 50  0001 L CNN
F 3 "https://www.diodes.com/assets/Datasheets/ds11005.pdf" H 6130 2200 50  0001 C CNN
	1    6250 2200
	-1   0    0    1   
$EndComp
Connection ~ 6250 2000
Text GLabel 6200 2000 0    50   Input ~ 0
PIN36
Wire Wire Line
	6250 2000 6200 2000
Wire Wire Line
	6600 2200 6550 2200
$Comp
L power:GND #PWR015
U 1 1 5D081428
P 6600 2200
F 0 "#PWR015" H 6600 1950 50  0001 C CNN
F 1 "GND" H 6605 2027 50  0000 C CNN
F 2 "" H 6600 2200 50  0001 C CNN
F 3 "" H 6600 2200 50  0001 C CNN
	1    6600 2200
	1    0    0    -1  
$EndComp
Text GLabel 6200 2650 0    50   Input ~ 0
DAC0
Wire Wire Line
	6200 2650 6250 2650
$Comp
L Device:R_US R7
U 1 1 5D0A7C0F
P 6250 2800
F 0 "R7" H 6318 2754 50  0000 L CNN
F 1 "100" H 6318 2845 50  0000 L CNN
F 2 "Resistor_SMD:R_0805_2012Metric" V 6290 2790 50  0001 C CNN
F 3 "~" H 6250 2800 50  0001 C CNN
	1    6250 2800
	-1   0    0    1   
$EndComp
$Comp
L Connector:Conn_01x02_Male J24
U 1 1 5D0A7C16
P 6550 2850
F 0 "J24" H 6523 2730 50  0000 R CNN
F 1 "Conn_01x02_Male" H 6523 2821 50  0000 R CNN
F 2 "Connector_PinHeader_2.54mm:PinHeader_2x01_P2.54mm_Vertical" H 6550 2850 50  0001 C CNN
F 3 "~" H 6550 2850 50  0001 C CNN
	1    6550 2850
	-1   0    0    1   
$EndComp
Wire Wire Line
	6350 2850 6350 2950
Wire Wire Line
	6250 2650 6350 2650
Wire Wire Line
	6350 2650 6350 2750
Connection ~ 6250 2650
Wire Wire Line
	6350 2950 6250 2950
$Comp
L Diode:BAT54S D7
U 1 1 5D0A7C22
P 6250 3150
F 0 "D7" H 6250 3282 50  0000 C CNN
F 1 "BAT54S" H 6250 3373 50  0000 C CNN
F 2 "Package_TO_SOT_SMD:SOT-23" H 6325 3275 50  0001 L CNN
F 3 "https://www.diodes.com/assets/Datasheets/ds11005.pdf" H 6130 3150 50  0001 C CNN
	1    6250 3150
	-1   0    0    1   
$EndComp
Connection ~ 6250 2950
Text GLabel 6200 2950 0    50   Input ~ 0
PINA21
Wire Wire Line
	6250 2950 6200 2950
Wire Wire Line
	6600 3150 6550 3150
$Comp
L power:GND #PWR026
U 1 1 5D0A7C33
P 6600 3150
F 0 "#PWR026" H 6600 2900 50  0001 C CNN
F 1 "GND" H 6605 2977 50  0000 C CNN
F 2 "" H 6600 3150 50  0001 C CNN
F 3 "" H 6600 3150 50  0001 C CNN
	1    6600 3150
	1    0    0    -1  
$EndComp
Text GLabel 6200 3500 0    50   Input ~ 0
DAC1
Wire Wire Line
	6200 3500 6250 3500
$Comp
L Device:R_US R8
U 1 1 5D0A7C3C
P 6250 3650
F 0 "R8" H 6318 3604 50  0000 L CNN
F 1 "100" H 6318 3695 50  0000 L CNN
F 2 "Resistor_SMD:R_0805_2012Metric" V 6290 3640 50  0001 C CNN
F 3 "~" H 6250 3650 50  0001 C CNN
	1    6250 3650
	-1   0    0    1   
$EndComp
$Comp
L Connector:Conn_01x02_Male J28
U 1 1 5D0A7C43
P 6550 3700
F 0 "J28" H 6523 3580 50  0000 R CNN
F 1 "Conn_01x02_Male" H 6523 3671 50  0000 R CNN
F 2 "Connector_PinHeader_2.54mm:PinHeader_2x01_P2.54mm_Vertical" H 6550 3700 50  0001 C CNN
F 3 "~" H 6550 3700 50  0001 C CNN
	1    6550 3700
	-1   0    0    1   
$EndComp
Wire Wire Line
	6350 3700 6350 3800
Wire Wire Line
	6250 3500 6350 3500
Wire Wire Line
	6350 3500 6350 3600
Connection ~ 6250 3500
Wire Wire Line
	6350 3800 6250 3800
$Comp
L Diode:BAT54S D8
U 1 1 5D0A7C4F
P 6250 4000
F 0 "D8" H 6250 4132 50  0000 C CNN
F 1 "BAT54S" H 6250 4223 50  0000 C CNN
F 2 "Package_TO_SOT_SMD:SOT-23" H 6325 4125 50  0001 L CNN
F 3 "https://www.diodes.com/assets/Datasheets/ds11005.pdf" H 6130 4000 50  0001 C CNN
	1    6250 4000
	-1   0    0    1   
$EndComp
Connection ~ 6250 3800
Text GLabel 6200 3800 0    50   Input ~ 0
PINA22
Wire Wire Line
	6250 3800 6200 3800
Wire Wire Line
	6600 4000 6550 4000
$Comp
L power:GND #PWR027
U 1 1 5D0A7C60
P 6600 4000
F 0 "#PWR027" H 6600 3750 50  0001 C CNN
F 1 "GND" H 6605 3827 50  0000 C CNN
F 2 "" H 6600 4000 50  0001 C CNN
F 3 "" H 6600 4000 50  0001 C CNN
	1    6600 4000
	1    0    0    -1  
$EndComp
Connection ~ 6250 850 
Wire Wire Line
	6250 850  6350 850 
Wire Wire Line
	6200 850  6250 850 
$Comp
L Connector:Conn_01x04_Male J31
U 1 1 5D2CFAF4
P 13200 3650
F 0 "J31" H 13173 3530 50  0000 R CNN
F 1 "Conn_01x04_Male" H 13173 3621 50  0000 R CNN
F 2 "footprints:1-2834016-4 _TERM_BLK_2P_SIDE_ENT_2.54MM_PCB" H 13200 3650 50  0001 C CNN
F 3 "~" H 13200 3650 50  0001 C CNN
	1    13200 3650
	-1   0    0    1   
$EndComp
$Comp
L Connector:Conn_01x04_Male J29
U 1 1 5D2F99B5
P 13200 3250
F 0 "J29" H 13173 3130 50  0000 R CNN
F 1 "Conn_01x04_Male" H 13173 3221 50  0000 R CNN
F 2 "footprints:1-2834016-4 _TERM_BLK_2P_SIDE_ENT_2.54MM_PCB" H 13200 3250 50  0001 C CNN
F 3 "~" H 13200 3250 50  0001 C CNN
	1    13200 3250
	-1   0    0    1   
$EndComp
Text GLabel 14350 3200 0    50   Input ~ 0
DAC0
Text GLabel 14350 3100 0    50   Input ~ 0
DAC1
Text GLabel 14350 3400 0    50   Input ~ 0
GPIO4
Text GLabel 14350 3300 0    50   Input ~ 0
GPIO5
Wire Wire Line
	12850 3050 13000 3050
Wire Wire Line
	12850 3150 13000 3150
Wire Wire Line
	12850 3450 13000 3450
Wire Wire Line
	12850 3550 13000 3550
$Comp
L power:GND #PWR061
U 1 1 5D3F9BE6
P 12900 3750
F 0 "#PWR061" H 12900 3500 50  0001 C CNN
F 1 "GND" H 12905 3577 50  0000 C CNN
F 2 "" H 12900 3750 50  0001 C CNN
F 3 "" H 12900 3750 50  0001 C CNN
	1    12900 3750
	1    0    0    -1  
$EndComp
$Comp
L Connector_Generic:Conn_02x08_Odd_Even J4
U 1 1 5D52D3C4
P 14600 3400
F 0 "J4" H 14650 3917 50  0000 C CNN
F 1 "Conn_02x08_Odd_Even" H 14650 3826 50  0000 C CNN
F 2 "Connector_Multicomp:Multicomp_MC9A22-1634_2x08_P2.54mm_Horizontal" H 14600 3400 50  0001 C CNN
F 3 "~" H 14600 3400 50  0001 C CNN
	1    14600 3400
	1    0    0    -1  
$EndComp
Wire Wire Line
	14900 3100 14900 3200
Wire Wire Line
	14900 3800 14900 3850
Wire Wire Line
	14900 3200 14900 3300
Connection ~ 14900 3200
Connection ~ 14900 3800
Connection ~ 14900 3300
Wire Wire Line
	14900 3300 14900 3400
Connection ~ 14900 3400
Wire Wire Line
	14900 3400 14900 3500
Connection ~ 14900 3500
Wire Wire Line
	14900 3500 14900 3600
Connection ~ 14900 3600
Wire Wire Line
	14900 3600 14900 3700
Connection ~ 14900 3700
Wire Wire Line
	14900 3700 14900 3800
Wire Wire Line
	14550 4750 14650 4750
Connection ~ 14550 4750
Wire Wire Line
	14350 4700 14650 4700
Wire Wire Line
	14650 4700 14650 4650
Connection ~ 14350 4700
Text Notes 1100 4950 0    39   ~ 0
gpio
Text Notes 1050 5350 0    39   ~ 0
gpio
Text Notes 1050 5450 0    39   ~ 0
gpio
Text Notes 1050 3750 0    39   ~ 0
gpio
Text Notes 1050 3850 0    39   ~ 0
gpio
Text Notes 1050 3950 0    39   ~ 0
gpio
Text Notes 1050 4050 0    39   ~ 0
gpio
Text Notes 950  3050 0    39   ~ 0
stepper2
Text Notes 1050 5050 0    39   ~ 0
relay
Text Notes 1050 5150 0    39   ~ 0
relay
Text Notes 1050 5250 0    39   ~ 0
relay
Wire Wire Line
	10250 2000 10250 2100
Wire Wire Line
	10250 2300 10250 2200
Connection ~ 10250 2100
Connection ~ 10250 2200
Wire Wire Line
	10250 2200 10250 2100
Wire Wire Line
	7650 2000 7650 2100
Wire Wire Line
	7650 2300 7650 2200
Connection ~ 7650 2100
Connection ~ 7650 2200
Wire Wire Line
	7650 2200 7650 2100
Wire Wire Line
	12750 2000 12750 2100
Wire Wire Line
	12750 2300 12750 2200
Connection ~ 12750 2100
Connection ~ 12750 2200
Wire Wire Line
	12750 2200 12750 2100
Text Notes 900  5750 0    39   ~ 0
dc motor2
Text Notes 4100 5950 0    39   ~ 0
dc motor stby
Wire Wire Line
	11750 2000 11900 2000
Connection ~ 11750 2000
Wire Wire Line
	11750 2000 11750 1500
Connection ~ 11800 1800
Wire Wire Line
	11800 1400 11800 1800
Wire Wire Line
	9150 2000 9350 2000
Connection ~ 9150 2000
Wire Wire Line
	9150 2000 9150 1500
Connection ~ 9200 1800
Wire Wire Line
	9200 1400 9200 1800
Wire Wire Line
	9000 2000 9150 2000
Wire Wire Line
	9000 1900 9200 1900
Wire Wire Line
	9100 1700 9250 1700
Wire Wire Line
	9100 1700 9000 1600
Wire Wire Line
	9100 1600 9000 1700
Wire Wire Line
	11600 2000 11750 2000
Wire Wire Line
	11600 1900 11800 1900
Wire Wire Line
	11700 1700 11600 1600
Wire Wire Line
	11700 1600 11600 1700
Wire Wire Line
	14100 1900 14300 1900
Wire Wire Line
	14100 2000 14250 2000
Wire Wire Line
	14100 1600 14200 1700
Wire Wire Line
	14100 1700 14200 1600
$Comp
L power:+3.3V #PWR0102
U 1 1 5EAC6F96
P 1050 3150
F 0 "#PWR0102" H 1050 3000 50  0001 C CNN
F 1 "+3.3V" V 1065 3278 50  0000 L CNN
F 2 "" H 1050 3150 50  0001 C CNN
F 3 "" H 1050 3150 50  0001 C CNN
	1    1050 3150
	0    -1   -1   0   
$EndComp
Wire Wire Line
	1600 3150 1050 3150
$Comp
L Connector:Conn_01x02_Male J33
U 1 1 5EB43F5F
P 4050 5050
F 0 "J33" H 4023 4930 50  0000 R CNN
F 1 "Conn_01x02_Male" H 4023 5021 50  0000 R CNN
F 2 "Connector_PinHeader_2.54mm:PinHeader_2x01_P2.54mm_Vertical" H 4050 5050 50  0001 C CNN
F 3 "~" H 4050 5050 50  0001 C CNN
	1    4050 5050
	-1   0    0    1   
$EndComp
$Comp
L power:+5V #PWR062
U 1 1 5EBE8F6B
P 3850 4850
F 0 "#PWR062" H 3850 4700 50  0001 C CNN
F 1 "+5V" H 3865 5023 50  0000 C CNN
F 2 "" H 3850 4850 50  0001 C CNN
F 3 "" H 3850 4850 50  0001 C CNN
	1    3850 4850
	1    0    0    -1  
$EndComp
Wire Wire Line
	3850 4950 3850 4850
Wire Wire Line
	3600 5050 3850 5050
Wire Wire Line
	13000 3250 12900 3250
Wire Wire Line
	12900 3250 12900 3350
Wire Wire Line
	13000 3350 12900 3350
Connection ~ 12900 3350
Wire Wire Line
	12900 3350 12900 3650
Wire Wire Line
	13000 3650 12900 3650
Connection ~ 12900 3650
Wire Wire Line
	12900 3650 12900 3750
Wire Wire Line
	12900 3750 13000 3750
Connection ~ 12900 3750
$Comp
L octojack-rescue:AL8805-SparkFun-IC-Special-Function U4
U 1 1 5EFD13F4
P 7150 6550
F 0 "U4" H 7150 6280 45  0000 C CNN
F 1 "AL8805" H 7150 6196 45  0000 C CNN
F 2 "Silicon-Standard:SOT23-5" H 7150 6900 20  0001 C CNN
F 3 "" H 7150 6550 60  0001 C CNN
F 4 "IC-11626" H 7150 6101 60  0000 C CNN "Field4"
	1    7150 6550
	1    0    0    -1  
$EndComp
$Comp
L power:+12V #PWR064
U 1 1 5F07AD04
P 7700 6150
F 0 "#PWR064" H 7700 6000 50  0001 C CNN
F 1 "+12V" H 7788 6187 50  0000 L CNN
F 2 "" H 7700 6150 50  0001 C CNN
F 3 "" H 7700 6150 50  0001 C CNN
	1    7700 6150
	1    0    0    -1  
$EndComp
Text GLabel 6650 6350 1    50   Input ~ 0
PIN22
Wire Wire Line
	6650 6450 6650 6350
$Comp
L power:GND #PWR013
U 1 1 5F126405
P 6650 6700
F 0 "#PWR013" H 6650 6450 50  0001 C CNN
F 1 "GND" H 6655 6527 50  0000 C CNN
F 2 "" H 6650 6700 50  0001 C CNN
F 3 "" H 6650 6700 50  0001 C CNN
	1    6650 6700
	1    0    0    -1  
$EndComp
Wire Wire Line
	6650 6650 6650 6700
$Comp
L Device:L L2
U 1 1 5F17E99C
P 8000 6950
F 0 "L2" H 8053 6996 50  0000 L CNN
F 1 "33uH" H 8053 6905 50  0000 L CNN
F 2 "Inductor_SMD:L_6.3x6.3_H3" H 8000 6950 50  0001 C CNN
F 3 "~" H 8000 6950 50  0001 C CNN
	1    8000 6950
	1    0    0    -1  
$EndComp
Wire Wire Line
	7650 6550 8000 6550
$Comp
L Device:C_Small C5
U 1 1 5F6431B7
P 7600 6200
F 0 "C5" V 7829 6200 50  0000 C CNN
F 1 "1uF" V 7738 6200 50  0000 C CNN
F 2 "Capacitor_SMD:C_0805_2012Metric" H 7600 6200 50  0001 C CNN
F 3 "~" H 7600 6200 50  0001 C CNN
	1    7600 6200
	0    -1   -1   0   
$EndComp
$Comp
L power:GND #PWR066
U 1 1 5F69DCCC
P 7450 6200
F 0 "#PWR066" H 7450 5950 50  0001 C CNN
F 1 "GND" H 7455 6027 50  0000 C CNN
F 2 "" H 7450 6200 50  0001 C CNN
F 3 "" H 7450 6200 50  0001 C CNN
	1    7450 6200
	0    1    1    0   
$EndComp
Wire Wire Line
	7450 6200 7500 6200
Wire Wire Line
	7700 6450 7650 6450
$Comp
L Device:R_US R9
U 1 1 5F80E758
P 7850 6450
F 0 "R9" V 8055 6450 50  0000 C CNN
F 1 "0.3" V 7964 6450 50  0000 C CNN
F 2 "Resistor_SMD:R_0805_2012Metric" V 7890 6440 50  0001 C CNN
F 3 "~" H 7850 6450 50  0001 C CNN
	1    7850 6450
	0    -1   -1   0   
$EndComp
Connection ~ 7700 6450
Wire Wire Line
	8000 6450 8000 6550
Connection ~ 8000 6550
$Comp
L octojack-rescue:AL8805-SparkFun-IC-Special-Function U5
U 1 1 5F86BE7B
P 7150 5350
F 0 "U5" H 7150 5080 45  0000 C CNN
F 1 "AL8805" H 7150 4996 45  0000 C CNN
F 2 "Silicon-Standard:SOT23-5" H 7150 5700 20  0001 C CNN
F 3 "" H 7150 5350 60  0001 C CNN
F 4 "IC-11626" H 7150 4901 60  0000 C CNN "Field4"
	1    7150 5350
	1    0    0    -1  
$EndComp
$Comp
L power:+12V #PWR067
U 1 1 5F86BE82
P 7700 4950
F 0 "#PWR067" H 7700 4800 50  0001 C CNN
F 1 "+12V" H 7788 4987 50  0000 L CNN
F 2 "" H 7700 4950 50  0001 C CNN
F 3 "" H 7700 4950 50  0001 C CNN
	1    7700 4950
	1    0    0    -1  
$EndComp
Text GLabel 6650 5150 1    50   Input ~ 0
PIN21
Wire Wire Line
	6650 5250 6650 5150
$Comp
L power:GND #PWR063
U 1 1 5F86BE8A
P 6650 5500
F 0 "#PWR063" H 6650 5250 50  0001 C CNN
F 1 "GND" H 6655 5327 50  0000 C CNN
F 2 "" H 6650 5500 50  0001 C CNN
F 3 "" H 6650 5500 50  0001 C CNN
	1    6650 5500
	1    0    0    -1  
$EndComp
Wire Wire Line
	6650 5450 6650 5500
$Comp
L Device:L L1
U 1 1 5F86BE91
P 8000 5750
F 0 "L1" H 8053 5796 50  0000 L CNN
F 1 "33uH" H 8053 5705 50  0000 L CNN
F 2 "Inductor_SMD:L_6.3x6.3_H3" H 8000 5750 50  0001 C CNN
F 3 "~" H 8000 5750 50  0001 C CNN
	1    8000 5750
	1    0    0    -1  
$EndComp
$Comp
L Device:C_Small C6
U 1 1 5F86BE98
P 8000 5450
F 0 "C6" H 8092 5496 50  0000 L CNN
F 1 "1uF" H 8092 5405 50  0000 L CNN
F 2 "Capacitor_SMD:C_0805_2012Metric" H 8000 5450 50  0001 C CNN
F 3 "~" H 8000 5450 50  0001 C CNN
	1    8000 5450
	1    0    0    -1  
$EndComp
Wire Wire Line
	7650 5350 8000 5350
$Comp
L Device:C_Small C4
U 1 1 5F86BEAE
P 7600 5000
F 0 "C4" V 7829 5000 50  0000 C CNN
F 1 "1uF" V 7738 5000 50  0000 C CNN
F 2 "Capacitor_SMD:C_0805_2012Metric" H 7600 5000 50  0001 C CNN
F 3 "~" H 7600 5000 50  0001 C CNN
	1    7600 5000
	0    -1   -1   0   
$EndComp
Wire Wire Line
	7700 5000 7700 4950
$Comp
L power:GND #PWR065
U 1 1 5F86BEB6
P 7450 5000
F 0 "#PWR065" H 7450 4750 50  0001 C CNN
F 1 "GND" H 7455 4827 50  0000 C CNN
F 2 "" H 7450 5000 50  0001 C CNN
F 3 "" H 7450 5000 50  0001 C CNN
	1    7450 5000
	0    1    1    0   
$EndComp
Wire Wire Line
	7450 5000 7500 5000
Wire Wire Line
	7700 5000 7700 5250
Wire Wire Line
	7700 5250 7650 5250
Connection ~ 7700 5000
$Comp
L Device:R_US R10
U 1 1 5F86BEC0
P 7850 5250
F 0 "R10" V 8055 5250 50  0000 C CNN
F 1 "0.3" V 7964 5250 50  0000 C CNN
F 2 "Resistor_SMD:R_0805_2012Metric" V 7890 5240 50  0001 C CNN
F 3 "~" H 7850 5250 50  0001 C CNN
	1    7850 5250
	0    -1   -1   0   
$EndComp
Connection ~ 7700 5250
Wire Wire Line
	8000 5250 8000 5350
Connection ~ 8000 5350
$Comp
L octojack-rescue:DIODE-SHOTTKY_MBRA140-SparkFun-DiscreteSemi D10
U 1 1 5FB25BB1
P 7700 6900
F 0 "D10" V 7791 6810 50  0000 R CNN
F 1 "MBRA140" V 7700 6810 50  0000 R CNN
F 2 "Silicon-Standard:SMA-DIODE" H 8350 6750 50  0001 C CNN
F 3 "" H 7700 6900 50  0001 C CNN
F 4 "DIO-08053" V 7609 6810 50  0000 R CNN "Field4"
	1    7700 6900
	0    -1   -1   0   
$EndComp
Wire Wire Line
	7650 6650 7650 7100
Wire Wire Line
	7650 7100 7700 7100
Wire Wire Line
	7700 6700 7700 6450
Wire Wire Line
	7700 7100 8000 7100
Connection ~ 7700 7100
$Comp
L Device:C_Small C7
U 1 1 5F1AACA9
P 8000 6650
F 0 "C7" H 8092 6696 50  0000 L CNN
F 1 "1uF" H 8092 6605 50  0000 L CNN
F 2 "Capacitor_SMD:C_0805_2012Metric" H 8000 6650 50  0001 C CNN
F 3 "~" H 8000 6650 50  0001 C CNN
	1    8000 6650
	1    0    0    -1  
$EndComp
Wire Wire Line
	8000 6750 8000 6800
Connection ~ 8000 6750
$Comp
L octojack-rescue:DIODE-SHOTTKY_MBRA140-SparkFun-DiscreteSemi D9
U 1 1 60033DCF
P 7700 5700
F 0 "D9" V 7791 5610 50  0000 R CNN
F 1 "MBRA140" V 7700 5610 50  0000 R CNN
F 2 "Silicon-Standard:SMA-DIODE" H 8350 5550 50  0001 C CNN
F 3 "" H 7700 5700 50  0001 C CNN
F 4 "DIO-08053" V 7609 5610 50  0000 R CNN "Field4"
	1    7700 5700
	0    -1   -1   0   
$EndComp
Wire Wire Line
	7650 5450 7650 5900
Wire Wire Line
	7650 5900 7700 5900
Wire Wire Line
	7700 5500 7700 5250
Wire Wire Line
	7700 5900 8000 5900
Connection ~ 7700 5900
Wire Wire Line
	8000 5600 8000 5550
Wire Wire Line
	8300 5550 8000 5550
Connection ~ 8000 5550
Connection ~ 7700 6200
Wire Wire Line
	7700 6200 7700 6450
Wire Wire Line
	7700 6200 7700 6150
$Comp
L Connector:Conn_01x04_Male J37
U 1 1 60460F71
P 8800 5850
F 0 "J37" H 8773 5730 50  0000 R CNN
F 1 "Conn_01x04_Male" H 8773 5821 50  0000 R CNN
F 2 "footprints:1-2834016-4 _TERM_BLK_2P_SIDE_ENT_2.54MM_PCB" H 8800 5850 50  0001 C CNN
F 3 "~" H 8800 5850 50  0001 C CNN
	1    8800 5850
	-1   0    0    -1  
$EndComp
$Comp
L Connector:Conn_01x04_Male J36
U 1 1 60460F78
P 8800 5450
F 0 "J36" H 8773 5330 50  0000 R CNN
F 1 "Conn_01x04_Male" H 8773 5421 50  0000 R CNN
F 2 "Connector_PinHeader_2.54mm:PinHeader_1x04_P2.54mm_Horizontal" H 8800 5450 50  0001 C CNN
F 3 "~" H 8800 5450 50  0001 C CNN
	1    8800 5450
	-1   0    0    -1  
$EndComp
Wire Wire Line
	8300 5550 8300 5750
Connection ~ 8300 5550
Wire Wire Line
	8000 6550 8400 6550
Wire Wire Line
	8000 6750 8450 6750
Wire Wire Line
	8600 6050 8400 6050
Connection ~ 8400 6050
Wire Wire Line
	8400 6050 8400 6550
Wire Wire Line
	8600 5950 8450 5950
Connection ~ 8450 5950
Wire Wire Line
	8450 5950 8450 6750
Wire Wire Line
	8450 5550 8600 5550
Wire Wire Line
	8450 5550 8450 5950
Wire Wire Line
	8600 5650 8400 5650
Wire Wire Line
	8400 5650 8400 6050
Wire Wire Line
	8250 5850 8600 5850
Wire Wire Line
	8600 5750 8300 5750
Wire Wire Line
	8300 5350 8600 5350
Wire Wire Line
	8300 5350 8300 5550
Wire Wire Line
	8600 5450 8250 5450
Wire Wire Line
	8250 5450 8250 5850
Wire Wire Line
	8250 5450 8100 5450
Wire Wire Line
	8100 5450 8100 5350
Wire Wire Line
	8100 5350 8000 5350
Connection ~ 8250 5450
Text Notes 6650 4700 0    50   ~ 0
LED driver design taken from Picobuck.\nhttps://github.com/sparkfun/PicoBuck
Wire Notes Line
	6450 4450 9650 4450
Wire Notes Line
	9650 4450 9650 7250
Wire Notes Line
	9650 7250 6450 7250
Wire Notes Line
	6450 7250 6450 4450
Text Notes 9400 4650 2    79   ~ 0
LED DRIVERS
Wire Notes Line
	4350 550  7350 550 
Wire Notes Line
	7350 550  7350 4350
Wire Notes Line
	7350 4350 4350 4350
Wire Notes Line
	4350 4350 4350 550 
Text Notes 4400 700  0    79   ~ 0
INPUT PROTECTION
$Comp
L octojack-rescue:OSHW-LOGOL-SparkFun-Aesthetics LOGO1
U 1 1 5CCBA8FD
P 2550 900
F 0 "LOGO1" H 2550 1150 45  0001 C CNN
F 1 "OSHW-LOGOL" H 2550 500 45  0001 C CNN
F 2 "Aesthetics:OSHW-LOGO-L" H 2550 1200 20  0001 C CNN
F 3 "" H 2550 900 50  0001 C CNN
F 4 "XXX-00000" H 3028 835 60  0000 L CNN "Field4"
	1    2550 900 
	1    0    0    -1  
$EndComp
$Comp
L natecermak:OCTOJACK_LOGO U6
U 1 1 5CD23336
P 1400 1100
F 0 "U6" H 1528 1296 50  0000 L CNN
F 1 "OCTOJACK_LOGO" H 1528 1205 50  0000 L CNN
F 2 "footprints:OCTOJACK_LOGO" H 1400 1100 50  0001 C CNN
F 3 "" H 1400 1100 50  0001 C CNN
	1    1400 1100
	1    0    0    -1  
$EndComp
Wire Wire Line
	5200 1400 5150 1400
$Comp
L power:+3.3V #PWR029
U 1 1 5CA65D8B
P 4500 1400
F 0 "#PWR029" H 4500 1250 50  0001 C CNN
F 1 "+3.3V" V 4515 1528 50  0000 L CNN
F 2 "" H 4500 1400 50  0001 C CNN
F 3 "" H 4500 1400 50  0001 C CNN
	1    4500 1400
	0    -1   -1   0   
$EndComp
Wire Wire Line
	4550 1400 4500 1400
$Comp
L power:+3.3V #PWR030
U 1 1 5CA99E6E
P 4500 2250
F 0 "#PWR030" H 4500 2100 50  0001 C CNN
F 1 "+3.3V" V 4515 2378 50  0000 L CNN
F 2 "" H 4500 2250 50  0001 C CNN
F 3 "" H 4500 2250 50  0001 C CNN
	1    4500 2250
	0    -1   -1   0   
$EndComp
Wire Wire Line
	4550 2250 4500 2250
$Comp
L power:+3.3V #PWR031
U 1 1 5CACE55D
P 4500 3150
F 0 "#PWR031" H 4500 3000 50  0001 C CNN
F 1 "+3.3V" V 4515 3278 50  0000 L CNN
F 2 "" H 4500 3150 50  0001 C CNN
F 3 "" H 4500 3150 50  0001 C CNN
	1    4500 3150
	0    -1   -1   0   
$EndComp
Wire Wire Line
	4550 3150 4500 3150
$Comp
L power:+3.3V #PWR055
U 1 1 5CB0325B
P 5900 1350
F 0 "#PWR055" H 5900 1200 50  0001 C CNN
F 1 "+3.3V" V 5915 1478 50  0000 L CNN
F 2 "" H 5900 1350 50  0001 C CNN
F 3 "" H 5900 1350 50  0001 C CNN
	1    5900 1350
	0    -1   -1   0   
$EndComp
Wire Wire Line
	5950 1350 5900 1350
$Comp
L power:+3.3V #PWR057
U 1 1 5CB3862F
P 5900 2200
F 0 "#PWR057" H 5900 2050 50  0001 C CNN
F 1 "+3.3V" V 5915 2328 50  0000 L CNN
F 2 "" H 5900 2200 50  0001 C CNN
F 3 "" H 5900 2200 50  0001 C CNN
	1    5900 2200
	0    -1   -1   0   
$EndComp
Wire Wire Line
	5950 2200 5900 2200
$Comp
L power:+3.3V #PWR059
U 1 1 5CB6DED6
P 5900 3150
F 0 "#PWR059" H 5900 3000 50  0001 C CNN
F 1 "+3.3V" V 5915 3278 50  0000 L CNN
F 2 "" H 5900 3150 50  0001 C CNN
F 3 "" H 5900 3150 50  0001 C CNN
	1    5900 3150
	0    -1   -1   0   
$EndComp
Wire Wire Line
	5950 3150 5900 3150
$Comp
L power:+3.3V #PWR060
U 1 1 5CBA3E52
P 5900 4000
F 0 "#PWR060" H 5900 3850 50  0001 C CNN
F 1 "+3.3V" V 5915 4128 50  0000 L CNN
F 2 "" H 5900 4000 50  0001 C CNN
F 3 "" H 5900 4000 50  0001 C CNN
	1    5900 4000
	0    -1   -1   0   
$EndComp
Wire Wire Line
	5950 4000 5900 4000
$Comp
L power:+3.3V #PWR032
U 1 1 5CBDA2AE
P 4500 4000
F 0 "#PWR032" H 4500 3850 50  0001 C CNN
F 1 "+3.3V" V 4515 4128 50  0000 L CNN
F 2 "" H 4500 4000 50  0001 C CNN
F 3 "" H 4500 4000 50  0001 C CNN
	1    4500 4000
	0    -1   -1   0   
$EndComp
Wire Wire Line
	4550 4000 4500 4000
$Comp
L power:GND #PWR011
U 1 1 5D05ECC1
P 5200 3150
F 0 "#PWR011" H 5200 2900 50  0001 C CNN
F 1 "GND" H 5205 2977 50  0000 C CNN
F 2 "" H 5200 3150 50  0001 C CNN
F 3 "" H 5200 3150 50  0001 C CNN
	1    5200 3150
	1    0    0    -1  
$EndComp
Wire Wire Line
	5200 1450 5200 1400
Text Notes 4050 4850 0    39   ~ 0
use this jumper to either\n1) use the USB to power the +5V lines (with +5V power supply disconnected!)\n2) run the teensy from the +5V power line (with +5V power supply connected).\n(you MUST cut the Vin-Vusb trace on the teensy before you do this!)
$Comp
L Connector:Conn_01x06_Male J44
U 1 1 5C9FA1C5
P 14700 5700
F 0 "J44" H 14807 5268 50  0000 C CNN
F 1 "Conn_01x06_Male" H 14807 5177 50  0000 C CNN
F 2 "Connector_PinHeader_2.54mm:PinHeader_1x06_P2.54mm_Horizontal" H 14700 5700 50  0001 C CNN
F 3 "~" H 14700 5700 50  0001 C CNN
	1    14700 5700
	-1   0    0    -1  
$EndComp
Wire Wire Line
	14450 5350 14450 6000
Wire Wire Line
	14450 6000 14500 6000
Connection ~ 14450 5350
Wire Wire Line
	14500 5900 14400 5900
Wire Wire Line
	14400 5900 14400 5250
Connection ~ 14400 5250
Wire Wire Line
	14400 5250 14500 5250
Wire Wire Line
	14500 5800 14350 5800
Wire Wire Line
	14350 5800 14350 5150
Connection ~ 14350 5150
Wire Wire Line
	14350 5150 14500 5150
Wire Wire Line
	14500 5700 14300 5700
Wire Wire Line
	14300 5700 14300 5050
Connection ~ 14300 5050
Wire Wire Line
	14300 5050 14500 5050
Wire Wire Line
	14500 5600 14250 5600
Wire Wire Line
	14250 5600 14250 4950
Connection ~ 14250 4950
Wire Wire Line
	14250 4950 14500 4950
Wire Wire Line
	14500 5500 14200 5500
Wire Wire Line
	14200 5500 14200 4850
Connection ~ 14200 4850
Wire Wire Line
	14200 4850 14500 4850
$Comp
L Device:C_Small C8
U 1 1 5CE62996
P 7550 3900
F 0 "C8" H 7642 3946 50  0000 L CNN
F 1 "1uF" H 7642 3855 50  0000 L CNN
F 2 "Capacitor_SMD:C_0805_2012Metric" H 7550 3900 50  0001 C CNN
F 3 "~" H 7550 3900 50  0001 C CNN
	1    7550 3900
	1    0    0    -1  
$EndComp
$Comp
L power:+5V #PWR068
U 1 1 5CE62CE4
P 7550 3700
F 0 "#PWR068" H 7550 3550 50  0001 C CNN
F 1 "+5V" V 7565 3828 50  0000 L CNN
F 2 "" H 7550 3700 50  0001 C CNN
F 3 "" H 7550 3700 50  0001 C CNN
	1    7550 3700
	1    0    0    -1  
$EndComp
$Comp
L power:GND #PWR069
U 1 1 5CE62DF1
P 7550 4050
F 0 "#PWR069" H 7550 3800 50  0001 C CNN
F 1 "GND" V 7555 3922 50  0000 R CNN
F 2 "" H 7550 4050 50  0001 C CNN
F 3 "" H 7550 4050 50  0001 C CNN
	1    7550 4050
	1    0    0    -1  
$EndComp
Wire Wire Line
	7550 4000 7550 4050
Wire Wire Line
	7550 3700 7550 3800
$Comp
L power:GND #PWR0101
U 1 1 5CED6200
P 3650 5150
F 0 "#PWR0101" H 3650 4900 50  0001 C CNN
F 1 "GND" H 3655 4977 50  0000 C CNN
F 2 "" H 3650 5150 50  0001 C CNN
F 3 "" H 3650 5150 50  0001 C CNN
	1    3650 5150
	0    -1   -1   0   
$EndComp
$Comp
L power:GND #PWR0103
U 1 1 5CF48281
P 1550 1750
F 0 "#PWR0103" H 1550 1500 50  0001 C CNN
F 1 "GND" H 1555 1577 50  0000 C CNN
F 2 "" H 1550 1750 50  0001 C CNN
F 3 "" H 1550 1750 50  0001 C CNN
	1    1550 1750
	-1   0    0    1   
$EndComp
Wire Wire Line
	1550 1750 1600 1750
Wire Wire Line
	3600 5150 3650 5150
$Comp
L Switch:SW_Push SW1
U 1 1 5CEE04E3
P 4250 6950
F 0 "SW1" H 4250 7235 50  0000 C CNN
F 1 "SW_Push" H 4250 7144 50  0000 C CNN
F 2 "footprints:EVQ-PF303K" H 4250 7150 50  0001 C CNN
F 3 "" H 4250 7150 50  0001 C CNN
	1    4250 6950
	1    0    0    -1  
$EndComp
$Comp
L power:GND #PWR0104
U 1 1 5CF1E895
P 3900 6950
F 0 "#PWR0104" H 3900 6700 50  0001 C CNN
F 1 "GND" H 3905 6777 50  0000 C CNN
F 2 "" H 3900 6950 50  0001 C CNN
F 3 "" H 3900 6950 50  0001 C CNN
	1    3900 6950
	1    0    0    -1  
$EndComp
Wire Wire Line
	4050 6950 3900 6950
$Comp
L Connector:Conn_01x01_Male J45
U 1 1 5CFD146A
P 4800 6950
F 0 "J45" H 4773 6880 50  0000 R CNN
F 1 "Conn_01x01_Male" H 4773 6971 50  0000 R CNN
F 2 "Connectors:1X01" H 4800 6950 50  0001 C CNN
F 3 "~" H 4800 6950 50  0001 C CNN
	1    4800 6950
	-1   0    0    1   
$EndComp
Wire Wire Line
	4450 6950 4600 6950
$EndSCHEMATC
